phy_tx/phy_tx.vcd
$date
	Wed Oct 20 20:48:52 2021
$end
$version
	Icarus Verilog
$end
$timescale
	1ns
$end
$scope module testbench $end
$var wire 1 ! valid $end
$var wire 1 " serial_o1 $end
$var wire 1 # serial_o0 $end
$var wire 1 $ reset $end
$var wire 32 % input_bus [31:0] $end
$var wire 1 & clk4 $end
$var wire 1 ' clk32 $end
$var wire 1 ( clk2 $end
$var wire 1 ) clk $end
$scope module generador_de_relojesINST $end
$var wire 1 * EN1 $end
$var wire 1 + EN2 $end
$var wire 1 , EN3 $end
$var wire 1 - EN4 $end
$var wire 1 . CLK8 $end
$var wire 1 & CLK4 $end
$var wire 1 ' CLK32 $end
$var wire 1 ( CLK2 $end
$var wire 1 / CLK16 $end
$var wire 1 ) CLK $end
$scope module ff0 $end
$var wire 1 0 T $end
$var wire 1 ' CLK $end
$var reg 1 / Q $end
$upscope $end
$scope module ff1 $end
$var wire 1 * T $end
$var wire 1 ' CLK $end
$var reg 1 . Q $end
$upscope $end
$scope module ff2 $end
$var wire 1 + T $end
$var wire 1 ' CLK $end
$var reg 1 & Q $end
$upscope $end
$scope module ff3 $end
$var wire 1 , T $end
$var wire 1 ' CLK $end
$var reg 1 ( Q $end
$upscope $end
$scope module ff4 $end
$var wire 1 - T $end
$var wire 1 ' CLK $end
$var reg 1 ) Q $end
$upscope $end
$upscope $end
$scope module phy_txINST $end
$var wire 1 ) clk $end
$var wire 1 ( clk2 $end
$var wire 1 & clk4 $end
$var wire 1 1 valid_out $end
$var wire 1 ! valid $end
$var wire 1 " serial_o1 $end
$var wire 1 # serial_o0 $end
$var wire 1 $ reset $end
$var wire 32 2 lane_1 [31:0] $end
$var wire 32 3 lane_0 [31:0] $end
$var wire 32 4 input_bus [31:0] $end
$var wire 8 5 data_out1 [7:0] $end
$var wire 8 6 data_out0 [7:0] $end
$var wire 1 ' clk32 $end
$scope module conv_32b_8bINST0 $end
$var wire 1 & clk_4f $end
$var wire 1 ) clk_f $end
$var wire 1 ! valid_in $end
$var wire 32 7 data_in [31:0] $end
$var reg 3 8 contador [2:0] $end
$var reg 8 9 data_out [7:0] $end
$var reg 1 : valid_out $end
$upscope $end
$scope module conv_32b_8bINST1 $end
$var wire 1 & clk_4f $end
$var wire 1 ) clk_f $end
$var wire 1 ! valid_in $end
$var wire 32 ; data_in [31:0] $end
$var reg 3 < contador [2:0] $end
$var reg 8 = data_out [7:0] $end
$var reg 1 > valid_out $end
$upscope $end
$scope module paralelo_serialINST0 $end
$var wire 1 & clk_4f $end
$var wire 8 ? data_in [7:0] $end
$var wire 1 ! valid_in $end
$var wire 1 $ reset $end
$var wire 1 ' clk_32f $end
$var reg 8 @ data2send [7:0] $end
$var reg 1 # data_out $end
$var reg 3 A selector1 [2:0] $end
$var reg 3 B selector2 [2:0] $end
$upscope $end
$scope module paralelo_serialINST1 $end
$var wire 1 & clk_4f $end
$var wire 8 C data_in [7:0] $end
$var wire 1 ! valid_in $end
$var wire 1 $ reset $end
$var wire 1 ' clk_32f $end
$var reg 8 D data2send [7:0] $end
$var reg 1 " data_out $end
$var reg 3 E selector1 [2:0] $end
$var reg 3 F selector2 [2:0] $end
$upscope $end
$scope module stripingINST $end
$var wire 1 ( clk_2f $end
$var wire 1 ! valid_in $end
$var wire 1 $ reset $end
$var wire 32 G data_in [31:0] $end
$var reg 32 H lane_0 [31:0] $end
$var reg 32 I lane_1 [31:0] $end
$var reg 1 J selector $end
$var reg 1 K valid_0 $end
$var reg 1 L valid_1 $end
$upscope $end
$upscope $end
$scope module phy_tx_testerINST $end
$var wire 1 ) clk $end
$var wire 1 ( clk2 $end
$var wire 1 & clk4 $end
$var wire 1 # serial_o0 $end
$var wire 1 " serial_o1 $end
$var reg 1 ' clk32 $end
$var reg 32 M input_bus [31:0] $end
$var reg 1 $ reset $end
$var reg 1 ! valid $end
$upscope $end
$upscope $end
$enddefinitions $end
#0
$dumpvars
b0 M
xL
xK
xJ
bx I
bx H
b0 G
bx F
bx E
bx D
bx C
bx B
bx A
bx @
bx ?
x>
bx =
bx <
bx ;
x:
bx 9
bx 8
bx 7
bx 6
bx 5
b0 4
bx 3
bx 2
x1
10
0/
0.
0-
0,
0+
0*
0)
0(
0'
0&
b0 %
1$
x#
x"
0!
$end
#1
1*
b0 @
b0 A
b0 B
0#
b0 D
b0 E
b0 F
0"
1/
1'
#2
0'
#3
0*
1.
0/
1'
#4
0'
#5
1+
1*
1/
1'
#6
0'
#7
01
0:
0>
b0 8
b0 <
0+
0*
1&
0.
0/
1'
#8
0'
#9
1*
1/
1'
#10
0'
#11
0*
1.
0/
1'
#12
0'
#13
1,
1+
1*
1/
1'
#14
0'
#15
b0 3
b0 7
b0 H
b0 2
b0 ;
b0 I
0L
0K
0J
0$
1!
0,
0+
0*
1(
0&
0.
0/
1'
#16
0'
#17
1*
b1 A
x#
bx @
b1 E
x"
bx D
1/
1'
#18
0'
#19
0*
1.
0/
b10 E
b10 A
1'
#20
0'
#21
1+
1*
b11 A
b11 E
1/
1'
#22
0'
#23
b0 5
b0 =
b0 C
1>
b0 6
b0 9
b0 ?
11
1:
b1 <
b1 8
0+
0*
1&
0.
0/
b100 E
b100 A
1'
#24
0'
#25
1*
0#
b0 @
b101 A
0"
b0 D
b101 E
1/
1'
#26
0'
#27
0*
1.
0/
b110 E
b110 A
1'
#28
0'
#29
1-
1,
1+
1*
b111 A
b111 E
1/
1'
#30
0'
#31
0-
0,
0+
0*
1)
0(
0&
0.
0/
b0 E
b0 A
1'
#32
0'
#33
1*
b1 A
b1 E
1/
1'
#34
0'
#35
0*
1.
0/
b10 E
b10 A
1'
#36
0'
#37
1+
1*
b11 A
b11 E
1/
1'
#38
0'
#39
b10 8
b10 <
0+
0*
1&
0.
0/
b100 E
b100 A
1'
#40
0'
#41
1*
b101 A
b101 E
1/
1'
#42
0'
#43
0*
1.
0/
b110 E
b110 A
1'
#44
0'
#45
1,
1+
1*
b111 A
b111 E
1/
1'
#46
0'
#47
1K
1J
0,
0+
0*
1(
0&
0.
0/
b0 E
b0 A
1'
#48
0'
#49
1*
b1 A
b1 E
1/
1'
#50
0'
#51
0*
1.
0/
b10 E
b10 A
1'
#52
0'
#53
1+
1*
b11 A
b11 E
1/
1'
#54
0'
#55
b11 <
b11 8
0+
0*
1&
0.
0/
b100 E
b100 A
1'
#56
0'
#57
1*
b101 A
b101 E
1/
1'
#58
0'
#59
0*
1.
0/
b110 E
b110 A
1'
#60
0'
#61
1-
1,
1+
1*
b111 A
b111 E
1/
1'
#62
0'
#63
0-
0,
0+
0*
0)
0(
0&
0.
0/
b0 E
b0 A
1'
#64
0'
#65
1*
b1 A
b1 E
1/
1'
#66
0'
#67
0*
1.
0/
b10 E
b10 A
1'
#68
0'
#69
1+
1*
b11 A
b11 E
1/
1'
#70
0'
#71
b0 8
b0 <
0+
0*
1&
0.
0/
b100 E
b100 A
1'
#72
0'
#73
1*
b101 A
b101 E
1/
1'
#74
0'
#75
0*
1.
0/
b110 E
b110 A
1'
#76
0'
#77
1,
1+
1*
b111 A
b111 E
1/
1'
#78
0'
#79
1L
0J
b11110100111111111110111101111111 %
b11110100111111111110111101111111 4
b11110100111111111110111101111111 G
b11110100111111111110111101111111 M
0,
0+
0*
1(
0&
0.
0/
b0 E
b0 A
1'
#80
0'
#81
1*
b1 A
b1 E
1/
1'
#82
0'
#83
0*
1.
0/
b10 E
b10 A
1'
#84
0'
#85
1+
1*
b11 A
b11 E
1/
1'
#86
0'
#87
b1 <
b1 8
0+
0*
1&
0.
0/
b100 E
b100 A
1'
#88
0'
#89
1*
b101 A
b101 E
1/
1'
#90
0'
#91
0*
1.
0/
b110 E
b110 A
1'
#92
0'
#93
1-
1,
1+
1*
b111 A
b111 E
1/
1'
#94
0'
#95
0-
0,
0+
0*
1)
0(
0&
0.
0/
b0 E
b0 A
1'
#96
0'
#97
1*
b1 A
b1 E
1/
1'
#98
0'
#99
0*
1.
0/
b10 E
b10 A
1'
#100
0'
#101
1+
1*
b11 A
b11 E
1/
1'
#102
0'
#103
b10 8
b10 <
0+
0*
1&
0.
0/
b100 E
b100 A
1'
#104
0'
#105
1*
b101 A
b101 E
1/
1'
#106
0'
#107
0*
1.
0/
b110 E
b110 A
1'
#108
0'
#109
1,
1+
1*
b111 A
b111 E
1/
1'
#110
0'
#111
1J
b11110100111111111110111101111111 3
b11110100111111111110111101111111 7
b11110100111111111110111101111111 H
0,
0+
0*
1(
0&
0.
0/
b0 E
b0 A
1'
#112
0'
#113
1*
b1 A
b1 E
1/
1'
#114
0'
#115
0*
1.
0/
b10 E
b10 A
1'
#116
0'
#117
1+
1*
b11 A
b11 E
1/
1'
#118
0'
#119
b11101111 6
b11101111 9
b11101111 ?
b11 <
b11 8
0+
0*
1&
0.
0/
b100 E
b100 A
1'
#120
0'
#121
1*
1#
b11101111 @
b101 A
b101 E
1/
1'
#122
0'
#123
0*
1.
0/
b110 E
b110 A
1'
#124
0'
#125
1-
1,
1+
1*
b111 A
b111 E
1/
1'
#126
0'
#127
0-
0,
0+
0*
0)
0(
0&
0.
0/
b0 E
b0 A
1'
#128
0'
#129
1*
b1 A
b1 E
1/
1'
#130
0'
#131
0*
1.
0/
b10 E
b10 A
1'
#132
0'
#133
1+
1*
b11 A
b11 E
1/
1'
#134
0'
#135
b1111111 6
b1111111 9
b1111111 ?
b0 8
b0 <
0+
0*
1&
0.
0/
b100 E
0#
b100 A
1'
#136
0'
#137
1*
1#
b1111111 @
b101 A
b101 E
1/
1'
#138
0'
#139
0*
1.
0/
b110 E
b110 A
1'
#140
0'
#141
1,
1+
1*
b111 A
b111 E
1/
1'
#142
0'
#143
b11110100111111111110111101111111 2
b11110100111111111110111101111111 ;
b11110100111111111110111101111111 I
0J
b11101000111011101110010011101110 %
b11101000111011101110010011101110 4
b11101000111011101110010011101110 G
b11101000111011101110010011101110 M
0,
0+
0*
1(
0&
0.
0/
b0 E
b0 A
1'
#144
0'
#145
1*
b1 A
0#
b1 E
1/
1'
#146
0'
#147
0*
1.
0/
b10 E
1#
b10 A
1'
#148
0'
#149
1+
1*
b11 A
b11 E
1/
1'
#150
0'
#151
b11110100 5
b11110100 =
b11110100 C
b11110100 6
b11110100 9
b11110100 ?
b1 <
b1 8
0+
0*
1&
0.
0/
b100 E
b100 A
1'
#152
0'
#153
1*
0#
b11110100 @
b101 A
b11110100 D
b101 E
1/
1'
#154
0'
#155
0*
1.
0/
1"
b110 E
1#
b110 A
1'
#156
0'
#157
1-
1,
1+
1*
0#
b111 A
0"
b111 E
1/
1'
#158
0'
#159
0-
0,
0+
0*
1)
0(
0&
0.
0/
b0 E
b0 A
1'
#160
0'
#161
1*
b1 A
1#
b1 E
1"
1/
1'
#162
0'
#163
0*
1.
0/
b10 E
b10 A
1'
#164
0'
#165
1+
1*
b11 A
b11 E
1/
1'
#166
0'
#167
b11111111 6
b11111111 9
b11111111 ?
b11111111 5
b11111111 =
b11111111 C
b10 8
b10 <
0+
0*
1&
0.
0/
b100 E
b100 A
1'
#168
0'
#169
1*
b11111111 @
b101 A
b11111111 D
b101 E
1/
1'
#170
0'
#171
0*
1.
0/
b110 E
b110 A
1'
#172
0'
#173
1,
1+
1*
b111 A
b111 E
1/
1'
#174
0'
#175
1J
b11101000111011101110010011101110 3
b11101000111011101110010011101110 7
b11101000111011101110010011101110 H
0,
0+
0*
1(
0&
0.
0/
b0 E
b0 A
1'
#176
0'
#177
1*
b1 A
b1 E
1/
1'
#178
0'
#179
0*
1.
0/
b10 E
b10 A
1'
#180
0'
#181
1+
1*
b11 A
b11 E
1/
1'
#182
0'
#183
b11101111 5
b11101111 =
b11101111 C
b11100100 6
b11100100 9
b11100100 ?
b11 <
b11 8
0+
0*
1&
0.
0/
b100 E
b100 A
1'
#184
0'
#185
1*
0#
b11100100 @
b101 A
b11101111 D
b101 E
1/
1'
#186
0'
#187
0*
1.
0/
b110 E
1#
b110 A
1'
#188
0'
#189
1-
1,
1+
1*
0#
b111 A
b111 E
1/
1'
#190
0'
#191
0-
0,
0+
0*
0)
0(
0&
0.
0/
b0 E
b0 A
1'
#192
0'
#193
1*
b1 A
1#
b1 E
1/
1'
#194
0'
#195
0*
1.
0/
b10 E
b10 A
1'
#196
0'
#197
1+
1*
b11 A
b11 E
1/
1'
#198
0'
#199
b11101110 6
b11101110 9
b11101110 ?
b1111111 5
b1111111 =
b1111111 C
b0 8
b0 <
0+
0*
1&
0.
0/
0"
b100 E
0#
b100 A
1'
#200
0'
#201
1*
1#
b11101110 @
b101 A
1"
b1111111 D
b101 E
1/
1'
#202
0'
#203
0*
1.
0/
b110 E
b110 A
1'
#204
0'
#205
1,
1+
1*
b111 A
b111 E
1/
1'
#206
0'
#207
b11101000111011101110010011101110 2
b11101000111011101110010011101110 ;
b11101000111011101110010011101110 I
0J
b11010100110111011101011101111101 %
b11010100110111011101011101111101 4
b11010100110111011101011101111101 G
b11010100110111011101011101111101 M
0,
0+
0*
1(
0&
0.
0/
b0 E
0#
b0 A
1'
#208
0'
#209
1*
b1 A
1#
b1 E
0"
1/
1'
#210
0'
#211
0*
1.
0/
1"
b10 E
b10 A
1'
#212
0'
#213
1+
1*
b11 A
b11 E
1/
1'
#214
0'
#215
b11101000 5
b11101000 =
b11101000 C
b11101000 6
b11101000 9
b11101000 ?
b1 <
b1 8
0+
0*
1&
0.
0/
b100 E
0#
b100 A
1'
#216
0'
#217
1*
1#
b11101000 @
b101 A
b11101000 D
b101 E
1/
1'
#218
0'
#219
0*
1.
0/
0"
b110 E
0#
b110 A
1'
#220
0'
#221
1-
1,
1+
1*
b111 A
b111 E
1/
1'
#222
0'
#223
0-
0,
0+
0*
1)
0(
0&
0.
0/
b0 E
b0 A
1'
#224
0'
#225
1*
b1 A
1#
b1 E
1"
1/
1'
#226
0'
#227
0*
1.
0/
b10 E
b10 A
1'
#228
0'
#229
1+
1*
b11 A
b11 E
1/
1'
#230
0'
#231
b11101110 6
b11101110 9
b11101110 ?
b11101110 5
b11101110 =
b11101110 C
b10 8
b10 <
0+
0*
1&
0.
0/
0"
b100 E
0#
b100 A
1'
#232
0'
#233
1*
1#
b11101110 @
b101 A
1"
b11101110 D
b101 E
1/
1'
#234
0'
#235
0*
1.
0/
b110 E
b110 A
1'
#236
0'
#237
1,
1+
1*
b111 A
b111 E
1/
1'
#238
0'
#239
1J
b11010100110111011101011101111101 3
b11010100110111011101011101111101 7
b11010100110111011101011101111101 H
0,
0+
0*
1(
0&
0.
0/
0"
b0 E
0#
b0 A
1'
#240
0'
#241
1*
b1 A
1#
b1 E
1"
1/
1'
#242
0'
#243
0*
1.
0/
b10 E
b10 A
1'
#244
0'
#245
1+
1*
b11 A
b11 E
1/
1'
#246
0'
#247
b11100100 5
b11100100 =
b11100100 C
b11010111 6
b11010111 9
b11010111 ?
b11 <
b11 8
0+
0*
1&
0.
0/
0"
b100 E
0#
b100 A
1'
#248
0'
#249
1*
b11010111 @
b101 A
b11100100 D
b101 E
1/
1'
#250
0'
#251
0*
1.
0/
1"
b110 E
1#
b110 A
1'
#252
0'
#253
1-
1,
1+
1*
b111 A
0"
b111 E
1/
1'
#254
0'
#255
0-
0,
0+
0*
0)
0(
0&
0.
0/
b0 E
b0 A
1'
#256
0'
#257
1*
b1 A
b1 E
1"
1/
1'
#258
0'
#259
0*
1.
0/
b10 E
b10 A
1'
#260
0'
#261
1+
1*
0#
b11 A
b11 E
1/
1'
#262
0'
#263
b1111101 6
b1111101 9
b1111101 ?
b11101110 5
b11101110 =
b11101110 C
b0 8
b0 <
0+
0*
1&
0.
0/
0"
b100 E
1#
b100 A
1'
#264
0'
#265
1*
b1111101 @
b101 A
1"
b11101110 D
b101 E
1/
1'
#266
0'
#267
0*
1.
0/
b110 E
b110 A
1'
#268
0'
#269
1,
1+
1*
0#
b111 A
b111 E
1/
1'
#270
0'
#271
b11010100110111011101011101111101 2
b11010100110111011101011101111101 ;
b11010100110111011101011101111101 I
0J
b10001100110011000001110011001100 %
b10001100110011000001110011001100 4
b10001100110011000001110011001100 G
b10001100110011000001110011001100 M
0,
0+
0*
1(
0&
0.
0/
0"
b0 E
1#
b0 A
1'
#272
0'
#273
1*
b1 A
0#
b1 E
1"
1/
1'
#274
0'
#275
0*
1.
0/
b10 E
1#
b10 A
1'
#276
0'
#277
1+
1*
b11 A
b11 E
1/
1'
#278
0'
#279
b11010100 5
b11010100 =
b11010100 C
b11010100 6
b11010100 9
b11010100 ?
b1 <
b1 8
0+
0*
1&
0.
0/
0"
b100 E
b100 A
1'
#280
0'
#281
1*
0#
b11010100 @
b101 A
b11010100 D
b101 E
1/
1'
#282
0'
#283
0*
1.
0/
1"
b110 E
1#
b110 A
1'
#284
0'
#285
1-
1,
1+
1*
0#
b111 A
0"
b111 E
1/
1'
#286
0'
#287
0-
0,
0+
0*
1)
0(
0&
0.
0/
b0 E
b0 A
1'
#288
0'
#289
1*
b1 A
1#
b1 E
1"
1/
1'
#290
0'
#291
0*
1.
0/
b10 E
b10 A
1'
#292
0'
#293
1+
1*
0#
b11 A
0"
b11 E
1/
1'
#294
0'
#295
b11011101 6
b11011101 9
b11011101 ?
b11011101 5
b11011101 =
b11011101 C
b10 8
b10 <
0+
0*
1&
0.
0/
1"
b100 E
1#
b100 A
1'
#296
0'
#297
1*
b11011101 @
b101 A
b11011101 D
b101 E
1/
1'
#298
0'
#299
0*
1.
0/
b110 E
b110 A
1'
#300
0'
#301
1,
1+
1*
0#
b111 A
0"
b111 E
1/
1'
#302
0'
#303
1J
b10001100110011000001110011001100 3
b10001100110011000001110011001100 7
b10001100110011000001110011001100 H
0,
0+
0*
1(
0&
0.
0/
1"
b0 E
1#
b0 A
1'
#304
0'
#305
1*
b1 A
b1 E
1/
1'
#306
0'
#307
0*
1.
0/
b10 E
b10 A
1'
#308
0'
#309
1+
1*
0#
b11 A
0"
b11 E
1/
1'
#310
0'
#311
b11010111 5
b11010111 =
b11010111 C
b11100 6
b11100 9
b11100 ?
b11 <
b11 8
0+
0*
1&
0.
0/
1"
b100 E
1#
b100 A
1'
#312
0'
#313
1*
b11100 @
b101 A
0"
b11010111 D
b101 E
1/
1'
#314
0'
#315
0*
1.
0/
1"
b110 E
b110 A
1'
#316
0'
#317
1-
1,
1+
1*
0#
b111 A
b111 E
1/
1'
#318
0'
#319
0-
0,
0+
0*
0)
0(
0&
0.
0/
b0 E
b0 A
1'
#320
0'
#321
1*
b1 A
b1 E
1/
1'
#322
0'
#323
0*
1.
0/
b10 E
b10 A
1'
#324
0'
#325
1+
1*
b11 A
0"
b11 E
1/
1'
#326
0'
#327
b11001100 6
b11001100 9
b11001100 ?
b1111101 5
b1111101 =
b1111101 C
b0 8
b0 <
0+
0*
1&
0.
0/
1"
b100 E
1#
b100 A
1'
#328
0'
#329
1*
b11001100 @
b101 A
b1111101 D
b101 E
1/
1'
#330
0'
#331
0*
1.
0/
b110 E
b110 A
1'
#332
0'
#333
1,
1+
1*
0#
b111 A
0"
b111 E
1/
1'
