phy/phy.vcd
$date
	Fri Oct 22 09:18:38 2021
$end
$version
	Icarus Verilog
$end
$timescale
	1ns
$end
$scope module testbench $end
$var wire 1 ! valid $end
$var wire 1 " reset $end
$var wire 32 # output_bus [31:0] $end
$var wire 32 $ input_bus [31:0] $end
$var wire 1 % clk4 $end
$var wire 1 & clk32 $end
$var wire 1 ' clk2 $end
$var wire 1 ( clk $end
$scope module generador_de_relojesINST $end
$var wire 1 ) EN1 $end
$var wire 1 * EN2 $end
$var wire 1 + EN3 $end
$var wire 1 , EN4 $end
$var wire 1 - CLK8 $end
$var wire 1 % CLK4 $end
$var wire 1 & CLK32 $end
$var wire 1 ' CLK2 $end
$var wire 1 . CLK16 $end
$var wire 1 ( CLK $end
$scope module ff0 $end
$var wire 1 / T $end
$var wire 1 & CLK $end
$var reg 1 . Q $end
$upscope $end
$scope module ff1 $end
$var wire 1 ) T $end
$var wire 1 & CLK $end
$var reg 1 - Q $end
$upscope $end
$scope module ff2 $end
$var wire 1 * T $end
$var wire 1 & CLK $end
$var reg 1 % Q $end
$upscope $end
$scope module ff3 $end
$var wire 1 + T $end
$var wire 1 & CLK $end
$var reg 1 ' Q $end
$upscope $end
$scope module ff4 $end
$var wire 1 , T $end
$var wire 1 & CLK $end
$var reg 1 ( Q $end
$upscope $end
$upscope $end
$scope module phyINST $end
$var wire 1 ( clk $end
$var wire 1 ' clk2 $end
$var wire 1 % clk4 $end
$var wire 1 ! valid $end
$var wire 1 0 serial_o1 $end
$var wire 1 1 serial_o0 $end
$var wire 1 " reset $end
$var wire 32 2 output_bus [31:0] $end
$var wire 32 3 input_bus [31:0] $end
$var wire 1 & clk32 $end
$scope module receptor $end
$var wire 1 ( clk $end
$var wire 1 ' clk2 $end
$var wire 1 % clk4 $end
$var wire 1 4 valid_1 $end
$var wire 1 5 valid_0 $end
$var wire 1 6 validS_1 $end
$var wire 1 7 validS_0 $end
$var wire 1 0 serial_o1 $end
$var wire 1 1 serial_o0 $end
$var wire 1 " reset $end
$var wire 8 8 paralelo1 [7:0] $end
$var wire 8 9 paralelo0 [7:0] $end
$var wire 32 : output_bus [31:0] $end
$var wire 32 ; lane_1_rx [31:0] $end
$var wire 32 < lane_0_rx [31:0] $end
$var wire 1 & clk32 $end
$scope module ochoBit_32BitINST0 $end
$var wire 1 % clk_4f $end
$var wire 1 ( clk_f $end
$var wire 1 7 valid_in $end
$var wire 8 = data_in [7:0] $end
$var reg 2 > contador [1:0] $end
$var reg 32 ? data_out [31:0] $end
$var reg 1 5 valid_out $end
$upscope $end
$scope module ochoBit_32BitINST1 $end
$var wire 1 % clk_4f $end
$var wire 1 ( clk_f $end
$var wire 1 6 valid_in $end
$var wire 8 @ data_in [7:0] $end
$var reg 2 A contador [1:0] $end
$var reg 32 B data_out [31:0] $end
$var reg 1 4 valid_out $end
$upscope $end
$scope module serial_paraleloINST0 $end
$var wire 1 % clk_4f $end
$var wire 1 " reset $end
$var wire 1 1 data_in $end
$var wire 1 & clk_32f $end
$var reg 1 C active $end
$var reg 8 D data2send [7:0] $end
$var reg 8 E data2send2 [7:0] $end
$var reg 8 F data_out [7:0] $end
$var reg 1 7 valid_out $end
$var integer 32 G BC_counter [31:0] $end
$var integer 32 H counter [31:0] $end
$upscope $end
$scope module serial_paraleloINST1 $end
$var wire 1 % clk_4f $end
$var wire 1 " reset $end
$var wire 1 0 data_in $end
$var wire 1 & clk_32f $end
$var reg 1 I active $end
$var reg 8 J data2send [7:0] $end
$var reg 8 K data2send2 [7:0] $end
$var reg 8 L data_out [7:0] $end
$var reg 1 6 valid_out $end
$var integer 32 M BC_counter [31:0] $end
$var integer 32 N counter [31:0] $end
$upscope $end
$scope module un_stripingINST $end
$var wire 1 ' clk_2f $end
$var wire 32 O lane_0 [31:0] $end
$var wire 32 P lane_1 [31:0] $end
$var wire 1 5 valid_0 $end
$var wire 1 4 valid_1 $end
$var wire 1 " reset $end
$var reg 32 Q data_out [31:0] $end
$var reg 1 R selector $end
$var reg 1 S valid_out $end
$upscope $end
$upscope $end
$scope module transmisor $end
$var wire 1 ( clk $end
$var wire 1 ' clk2 $end
$var wire 1 % clk4 $end
$var wire 1 T valid_lane1 $end
$var wire 1 U valid_lane0 $end
$var wire 1 V valid_32_1 $end
$var wire 1 W valid_32_0 $end
$var wire 1 ! valid $end
$var wire 1 0 serial_o1 $end
$var wire 1 1 serial_o0 $end
$var wire 1 " reset $end
$var wire 32 X lane_1 [31:0] $end
$var wire 32 Y lane_0 [31:0] $end
$var wire 32 Z input_bus [31:0] $end
$var wire 8 [ data_out1 [7:0] $end
$var wire 8 \ data_out0 [7:0] $end
$var wire 1 & clk32 $end
$scope module conv_32b_8bINST0 $end
$var wire 1 % clk_4f $end
$var wire 1 ( clk_f $end
$var wire 1 U valid_in $end
$var wire 32 ] data_in [31:0] $end
$var reg 3 ^ contador [2:0] $end
$var reg 8 _ data_out [7:0] $end
$var reg 1 W valid_out $end
$upscope $end
$scope module conv_32b_8bINST1 $end
$var wire 1 % clk_4f $end
$var wire 1 ( clk_f $end
$var wire 1 T valid_in $end
$var wire 32 ` data_in [31:0] $end
$var reg 3 a contador [2:0] $end
$var reg 8 b data_out [7:0] $end
$var reg 1 V valid_out $end
$upscope $end
$scope module paralelo_serialINST0 $end
$var wire 1 % clk_4f $end
$var wire 8 c data_in [7:0] $end
$var wire 1 W valid_in $end
$var wire 1 " reset $end
$var wire 1 & clk_32f $end
$var reg 8 d data2send [7:0] $end
$var reg 1 1 data_out $end
$var reg 3 e selector1 [2:0] $end
$var reg 3 f selector2 [2:0] $end
$upscope $end
$scope module paralelo_serialINST1 $end
$var wire 1 % clk_4f $end
$var wire 8 g data_in [7:0] $end
$var wire 1 V valid_in $end
$var wire 1 " reset $end
$var wire 1 & clk_32f $end
$var reg 8 h data2send [7:0] $end
$var reg 1 0 data_out $end
$var reg 3 i selector1 [2:0] $end
$var reg 3 j selector2 [2:0] $end
$upscope $end
$scope module stripingINST $end
$var wire 1 ' clk_2f $end
$var wire 1 ! valid_in $end
$var wire 1 " reset $end
$var wire 32 k data_in [31:0] $end
$var reg 32 l lane_0 [31:0] $end
$var reg 32 m lane_1 [31:0] $end
$var reg 1 n selector $end
$var reg 1 U valid_0 $end
$var reg 1 T valid_1 $end
$upscope $end
$upscope $end
$upscope $end
$scope module testerINST $end
$var wire 1 ( clk $end
$var wire 1 ' clk2 $end
$var wire 1 % clk4 $end
$var wire 32 o output_bus [31:0] $end
$var reg 1 & clk32 $end
$var reg 32 p input_bus [31:0] $end
$var reg 1 " reset $end
$var reg 1 ! valid $end
$upscope $end
$upscope $end
$enddefinitions $end
#0
$dumpvars
b1011110010111100 p
bx o
xn
bx m
bx l
b1011110010111100 k
bx j
bx i
bx h
bx g
bx f
bx e
bx d
bx c
bx b
bx a
bx `
bx _
bx ^
bx ]
bx \
bx [
b1011110010111100 Z
bx Y
bx X
xW
xV
xU
xT
xS
xR
bx Q
bx P
bx O
bx N
bx M
bx L
bx K
bx J
xI
bx H
bx G
bx F
bx E
bx D
xC
bx B
bx A
bx @
bx ?
bx >
bx =
bx <
bx ;
bx :
bx 9
bx 8
x7
x6
x5
x4
b1011110010111100 3
bx 2
x1
x0
1/
0.
0-
0,
0+
0*
0)
0(
0'
0&
0%
b1011110010111100 $
bx #
1"
0!
$end
#1
1)
b0 d
b0 e
b0 f
01
b0 h
b0 i
b0 j
00
b0 D
b0 H
b0 G
0C
07
b0 9
b0 =
b0 F
b0 J
b0 N
b0 M
0I
06
b0 8
b0 @
b0 L
1.
1&
#2
0&
#3
0)
1-
0.
1&
#4
0&
#5
1*
1)
1.
1&
#6
0&
#7
05
04
b0 >
b0 A
0*
0)
1%
0-
0.
1&
#8
0&
#9
1)
1.
1&
#10
0&
#11
0)
1-
0.
1&
#12
0&
#13
1+
1*
1)
1.
1&
#14
0&
#15
b0 Y
b0 ]
b0 l
b0 X
b0 `
b0 m
0T
0U
0n
b0 #
b0 2
b0 :
b0 Q
b0 o
0S
0R
0+
0*
0)
1'
0%
0-
0.
1&
#16
0&
#17
1)
1.
1&
#18
0&
#19
0)
1-
0.
1&
#20
0&
#21
1*
1)
1.
1&
#22
0&
#23
0"
1!
0V
0W
b0 a
b0 ^
0*
0)
1%
0-
0.
1&
#24
0&
#25
1)
b1 f
11
b10111100 d
b1 j
10
b10111100 h
b1 H
b1 N
1.
1&
#26
0&
#27
0)
1-
0.
b0 K
b10 N
b1 J
b0 E
b10 H
b1 D
00
b10 j
01
b10 f
1&
#28
0&
#29
1,
1+
1*
1)
11
b11 f
10
b11 j
b11 H
b10 D
b11 N
b10 J
1.
1&
#30
0&
#31
0,
0+
0*
0)
1(
0'
0%
0-
0.
b100 N
b101 J
b100 H
b101 D
b100 j
b100 f
1&
#32
0&
#33
1)
b101 f
b101 j
b101 H
b1011 D
b101 N
b1011 J
1.
1&
#34
0&
#35
0)
1-
0.
b110 N
b10111 J
b110 H
b10111 D
b110 j
b110 f
1&
#36
0&
#37
1*
1)
01
b111 f
00
b111 j
b111 H
b101111 D
b111 N
b101111 J
1.
1&
#38
0&
#39
0*
0)
1%
0-
0.
b0 N
b1011110 J
b0 H
b1011110 D
b0 j
b0 f
1&
#40
0&
#41
1)
b1 f
11
b1 j
10
b1 H
b10111100 D
b1 N
b10111100 J
1.
1&
#42
0&
#43
0)
1-
0.
b10111100 K
b10 N
b1 M
b1111001 J
b10111100 E
b10 H
b1 G
b1111001 D
00
b10 j
01
b10 f
1&
#44
0&
#45
1+
1*
1)
11
b11 f
10
b11 j
b11 H
b11110010 D
b11 N
b11110010 J
1.
1&
#46
0&
#47
1R
1U
1n
b1011110010111100 Y
b1011110010111100 ]
b1011110010111100 l
0+
0*
0)
1'
0%
0-
0.
b100 N
b11100101 J
b100 H
b11100101 D
b100 j
b100 f
1&
#48
0&
#49
1)
b101 f
b101 j
b101 H
b11001011 D
b101 N
b11001011 J
1.
1&
#50
0&
#51
0)
1-
0.
b110 N
b10010111 J
b110 H
b10010111 D
b110 j
b110 f
1&
#52
0&
#53
1*
1)
01
b111 f
00
b111 j
b111 H
b101111 D
b111 N
b101111 J
1.
1&
#54
0&
#55
b0 \
b0 _
b0 c
1W
b1 ^
0*
0)
1%
0-
0.
b0 N
b1011110 J
b0 H
b1011110 D
b0 j
b0 f
1&
#56
0&
#57
1)
b1 e
b0 d
b1 j
10
b1 H
b10111100 D
b1 N
b10111100 J
1.
1&
#58
0&
#59
0)
1-
0.
b10 N
b10 M
b1111001 J
b10 H
b10 G
b1111000 D
00
b10 j
b10 e
1&
#60
0&
#61
1,
1+
1*
1)
b11 e
10
b11 j
b11 H
b11110000 D
b11 N
b11110010 J
1.
1&
#62
0&
#63
0,
0+
0*
0)
0(
0'
0%
0-
0.
b100 N
b11100101 J
b100 H
b11100000 D
b100 j
b100 e
1&
#64
0&
#65
1)
b101 e
b101 j
b101 H
b11000000 D
b101 N
b11001011 J
1.
1&
#66
0&
#67
0)
1-
0.
b110 N
b10010111 J
b110 H
b10000000 D
b110 j
b110 e
1&
#68
0&
#69
1*
1)
b111 e
00
b111 j
b111 H
b0 D
b111 N
b101111 J
1.
1&
#70
0&
#71
b10 ^
0*
0)
1%
0-
0.
b0 N
b1011110 J
b0 H
b0 j
b0 e
1&
#72
0&
#73
1)
b1 e
b1 j
10
b1 H
b1 N
b10111100 J
1.
1&
#74
0&
#75
0)
1-
0.
b10 N
b11 M
b1111001 J
b0 E
b10 H
00
b10 j
b10 e
1&
#76
0&
#77
1+
1*
1)
b11 e
10
b11 j
b11 H
b11 N
b11110010 J
1.
1&
#78
0&
#79
b11111111111111111111111111111111 $
b11111111111111111111111111111111 3
b11111111111111111111111111111111 Z
b11111111111111111111111111111111 k
b11111111111111111111111111111111 p
1T
b1011110010111100 X
b1011110010111100 `
b1011110010111100 m
0n
0R
0+
0*
0)
1'
0%
0-
0.
b100 N
b11100101 J
b100 H
b100 j
b100 e
1&
#80
0&
#81
1)
b101 e
b101 j
b101 H
b101 N
b11001011 J
1.
1&
#82
0&
#83
0)
1-
0.
b110 N
b10010111 J
b110 H
b110 j
b110 e
1&
#84
0&
#85
1*
1)
b111 e
00
b111 j
b111 H
b111 N
b101111 J
1.
1&
#86
0&
#87
b0 [
b0 b
b0 g
1V
b10111100 \
b10111100 _
b10111100 c
b1 a
b11 ^
0*
0)
1%
0-
0.
b0 N
b1011110 J
b0 H
b0 j
b0 e
1&
#88
0&
#89
1)
b1 e
11
b10111100 d
b1 i
b0 h
b1 H
b1 N
b10111100 J
1.
1&
#90
0&
#91
0)
1-
0.
b10 N
b100 M
b1111000 J
b10 H
b1 D
b10 i
01
b10 e
1&
#92
0&
#93
1,
1+
1*
1)
11
b11 e
b11 i
b11 H
b10 D
b11 N
b11110000 J
1.
1&
#94
0&
#95
0,
0+
0*
0)
1(
0'
0%
0-
0.
b100 N
b11100000 J
b100 H
b101 D
b100 i
b100 e
1&
#96
0&
#97
1)
b101 e
b101 i
b101 H
b1011 D
b101 N
b11000000 J
1.
1&
#98
0&
#99
0)
1-
0.
b110 N
b10000000 J
b110 H
b10111 D
b110 i
b110 e
1&
#100
0&
#101
1*
1)
01
b111 e
b111 i
b111 H
b101111 D
b111 N
b0 J
1.
1&
#102
0&
#103
b0 ^
b10 a
0*
0)
1%
0-
0.
b0 N
b0 H
b1011110 D
b0 i
b0 e
1&
#104
0&
#105
1)
b1 e
11
b1 i
b1 H
b10111100 D
b1 N
1.
1&
#106
0&
#107
0)
1-
0.
b0 K
b10 N
16
1I
b10111100 E
b10 H
b11 G
b1111001 D
b10 i
01
b10 e
1&
#108
0&
#109
1+
1*
1)
11
b11 e
b11 i
b11 H
b11110010 D
b11 N
1.
1&
#110
0&
#111
1R
1n
b11111111111111111111111111111111 Y
b11111111111111111111111111111111 ]
b11111111111111111111111111111111 l
0+
0*
0)
1'
0%
0-
0.
b100 N
b100 H
b11100101 D
b100 i
b100 e
1&
#112
0&
#113
1)
b101 e
b101 i
b101 H
b11001011 D
b101 N
1.
1&
#114
0&
#115
0)
1-
0.
b110 N
b110 H
b10010111 D
b110 i
b110 e
1&
#116
0&
#117
1*
1)
01
b111 e
b111 i
b111 H
b101111 D
b111 N
1.
1&
#118
0&
#119
b0xxxxxxxxxxxxxxxxxxxxxxxx ;
b0xxxxxxxxxxxxxxxxxxxxxxxx B
b0xxxxxxxxxxxxxxxxxxxxxxxx P
b10111100 [
b10111100 b
b10111100 g
b11111111 \
b11111111 _
b11111111 c
b1 A
b11 a
b1 ^
0*
0)
1%
0-
0.
b0 N
b0 H
b1011110 D
b0 i
b0 e
1&
#120
0&
#121
1)
b1 e
11
b11111111 d
b1 i
10
b10111100 h
b1 H
b10111100 D
b1 N
1.
1&
#122
0&
#123
0)
1-
0.
b10 N
b1 J
b10 H
b100 G
b1111001 D
00
b10 i
b10 e
1&
#124
0&
#125
1,
1+
1*
1)
b11 e
10
b11 i
b11 H
b11110011 D
b11 N
b10 J
1.
1&
#126
0&
#127
0,
0+
0*
0)
0(
0'
0%
0-
0.
b100 N
b101 J
b100 H
b11100111 D
b100 i
b100 e
1&
#128
0&
#129
1)
b101 e
b101 i
b101 H
b11001111 D
b101 N
b1011 J
1.
1&
#130
0&
#131
0)
1-
0.
b110 N
b10111 J
b110 H
b10011111 D
b110 i
b110 e
1&
#132
0&
#133
1*
1)
b111 e
00
b111 i
b111 H
b111111 D
b111 N
b101111 J
1.
1&
#134
0&
#135
b0xxxxxxxxxxxxxxxx ;
b0xxxxxxxxxxxxxxxx B
b0xxxxxxxxxxxxxxxx P
b10 ^
b0 a
b10 A
0*
0)
1%
0-
0.
b0 N
b1011110 J
b0 H
b1111111 D
b0 i
b0 e
1&
#136
0&
#137
1)
b1 e
b1 i
10
b1 H
b11111111 D
b1 N
b10111100 J
1.
1&
#138
0&
#139
0)
1-
0.
b10111100 K
b10 N
06
b1111001 J
b11111111 E
b10 H
17
b11111111 9
b11111111 =
b11111111 F
1C
00
b10 i
b10 e
1&
#140
0&
#141
1+
1*
1)
b11 e
10
b11 i
b11 H
b11 N
b11110010 J
1.
1&
#142
0&
#143
b11110100111111111110111101111111 $
b11110100111111111110111101111111 3
b11110100111111111110111101111111 Z
b11110100111111111110111101111111 k
b11110100111111111110111101111111 p
b11111111111111111111111111111111 X
b11111111111111111111111111111111 `
b11111111111111111111111111111111 m
0n
0R
0+
0*
0)
1'
0%
0-
0.
b100 N
b11100101 J
b100 H
b100 i
b100 e
1&
#144
0&
#145
1)
b101 e
b101 i
b101 H
b101 N
b11001011 J
1.
1&
#146
0&
#147
0)
1-
0.
b110 N
b10010111 J
b110 H
b110 i
b110 e
1&
#148
0&
#149
1*
1)
b111 e
00
b111 i
b111 H
b111 N
b101111 J
1.
1&
#150
0&
#151
bx ;
bx B
bx P
b11111111xxxxxxxxxxxxxxxxxxxxxxxx <
b11111111xxxxxxxxxxxxxxxxxxxxxxxx ?
b11111111xxxxxxxxxxxxxxxxxxxxxxxx O
b11111111 [
b11111111 b
b11111111 g
b0 A
b1 >
b1 a
b11 ^
0*
0)
1%
0-
0.
b0 N
b1011110 J
b0 H
b0 i
b0 e
1&
#152
0&
#153
1)
b1 e
b1 i
10
b11111111 h
b1 H
b1 N
b10111100 J
1.
1&
#154
0&
#155
0)
1-
0.
b10 N
b1111001 J
b10 H
b10 i
b10 e
1&
#156
0&
#157
1,
1+
1*
1)
b11 e
b11 i
b11 H
b11 N
b11110011 J
1.
1&
#158
0&
#159
0,
0+
0*
0)
1(
0'
0%
0-
0.
b100 N
b11100111 J
b100 H
b100 i
b100 e
1&
#160
0&
#161
1)
b101 e
b101 i
b101 H
b101 N
b11001111 J
1.
1&
#162
0&
#163
0)
1-
0.
b110 N
b10011111 J
b110 H
b110 i
b110 e
1&
#164
0&
#165
1*
1)
b111 e
b111 i
b111 H
b111 N
b111111 J
1.
1&
#166
0&
#167
b1111111111111111xxxxxxxxxxxxxxxx <
b1111111111111111xxxxxxxxxxxxxxxx ?
b1111111111111111xxxxxxxxxxxxxxxx O
b0 ^
b10 a
b10 >
0*
0)
1%
0-
0.
b0 N
b1111111 J
b0 H
b0 i
b0 e
1&
#168
0&
#169
1)
b1 e
b1 i
b1 H
b1 N
b11111111 J
1.
1&
#170
0&
#171
0)
1-
0.
b11111111 K
b10 N
16
b11111111 8
b11111111 @
b11111111 L
b10 H
b10 i
b10 e
1&
#172
0&
#173
1+
1*
1)
b11 e
b11 i
b11 H
b11 N
1.
1&
#174
0&
#175
1R
1n
b11110100111111111110111101111111 Y
b11110100111111111110111101111111 ]
b11110100111111111110111101111111 l
b11101000111011101110010011101110 $
b11101000111011101110010011101110 3
b11101000111011101110010011101110 Z
b11101000111011101110010011101110 k
b11101000111011101110010011101110 p
0+
0*
0)
1'
0%
0-
0.
b100 N
b100 H
b100 i
b100 e
1&
#176
0&
#177
1)
b101 e
b101 i
b101 H
b101 N
1.
1&
#178
0&
#179
0)
1-
0.
b110 N
b110 H
b110 i
b110 e
1&
#180
0&
#181
1*
1)
b111 e
b111 i
b111 H
b111 N
1.
1&
#182
0&
#183
b11111111xxxxxxxxxxxxxxxxxxxxxxxx ;
b11111111xxxxxxxxxxxxxxxxxxxxxxxx B
b11111111xxxxxxxxxxxxxxxxxxxxxxxx P
b111111111111111111111111xxxxxxxx <
b111111111111111111111111xxxxxxxx ?
b111111111111111111111111xxxxxxxx O
b11110100 \
b11110100 _
b11110100 c
b1 A
b11 >
b11 a
b1 ^
0*
0)
1%
0-
0.
b0 N
b0 H
b0 i
b0 e
1&
#184
0&
#185
1)
b1 e
b11110100 d
b1 i
b1 H
b1 N
1.
1&
#186
0&
#187
0)
1-
0.
b10 N
b10 H
b10 i
b10 e
1&
#188
0&
#189
1,
1+
1*
1)
b11 e
b11 i
b11 H
b11 N
1.
1&
#190
0&
#191
0,
0+
0*
0)
0(
0'
0%
0-
0.
b100 N
b100 H
b100 i
b100 e
1&
#192
0&
#193
1)
01
b101 e
b101 i
b101 H
b101 N
1.
1&
#194
0&
#195
0)
1-
0.
b110 N
b110 H
b11111110 D
b110 i
11
b110 e
1&
#196
0&
#197
1*
1)
01
b111 e
b111 i
b111 H
b11111101 D
b111 N
1.
1&
#198
0&
#199
b11111111 \
b11111111 _
b11111111 c
15
b11111111111111111111111111111111 <
b11111111111111111111111111111111 ?
b11111111111111111111111111111111 O
b1111111111111111xxxxxxxxxxxxxxxx ;
b1111111111111111xxxxxxxxxxxxxxxx B
b1111111111111111xxxxxxxxxxxxxxxx P
b10 ^
b0 a
b0 >
b10 A
0*
0)
1%
0-
0.
b0 N
b0 H
b11111010 D
b0 i
b0 e
1&
#200
0&
#201
1)
b1 e
11
b11111111 d
b1 i
b1 H
b11110100 D
b1 N
1.
1&
#202
0&
#203
0)
1-
0.
b10 N
b11110100 E
b10 H
b11110100 9
b11110100 =
b11110100 F
b11101001 D
b10 i
b10 e
1&
#204
0&
#205
1+
1*
1)
b11 e
b11 i
b11 H
b11010011 D
b11 N
1.
1&
#206
0&
#207
b11010100110111011101011101111101 $
b11010100110111011101011101111101 3
b11010100110111011101011101111101 Z
b11010100110111011101011101111101 k
b11010100110111011101011101111101 p
b11101000111011101110010011101110 X
b11101000111011101110010011101110 `
b11101000111011101110010011101110 m
0n
1S
b11111111111111111111111111111111 #
b11111111111111111111111111111111 2
b11111111111111111111111111111111 :
b11111111111111111111111111111111 Q
b11111111111111111111111111111111 o
0R
0+
0*
0)
1'
0%
0-
0.
b100 N
b100 H
b10100111 D
b100 i
b100 e
1&
#208
0&
#209
1)
b101 e
b101 i
b101 H
b1001111 D
b101 N
1.
1&
#210
0&
#211
0)
1-
0.
b110 N
b110 H
b10011111 D
b110 i
b110 e
1&
#212
0&
#213
1*
1)
b111 e
b111 i
b111 H
b111111 D
b111 N
1.
1&
#214
0&
#215
b111111111111111111111111xxxxxxxx ;
b111111111111111111111111xxxxxxxx B
b111111111111111111111111xxxxxxxx P
b11110100111111111111111111111111 <
b11110100111111111111111111111111 ?
b11110100111111111111111111111111 O
05
b11101000 [
b11101000 b
b11101000 g
b11101111 \
b11101111 _
b11101111 c
b11 A
b1 >
b1 a
b11 ^
0*
0)
1%
0-
0.
b0 N
b0 H
b1111111 D
b0 i
b0 e
1&
#216
0&
#217
1)
b1 e
b11101111 d
b1 i
b11101000 h
b1 H
b11111111 D
b1 N
1.
1&
#218
0&
#219
0)
1-
0.
b10 N
b11111111 E
b10 H
b11111111 9
b11111111 =
b11111111 F
b10 i
b10 e
1&
#220
0&
#221
1,
1+
1*
1)
b11 e
b11 i
b11 H
b11 N
1.
1&
#222
0&
#223
0,
0+
0*
0)
1(
0'
0%
0-
0.
b100 N
b100 H
00
b100 i
01
b100 e
1&
#224
0&
#225
1)
11
b101 e
10
b101 i
b101 H
b11111110 D
b101 N
b11111110 J
1.
1&
#226
0&
#227
0)
1-
0.
b110 N
b11111101 J
b110 H
b11111101 D
00
b110 i
b110 e
1&
#228
0&
#229
1*
1)
b111 e
b111 i
b111 H
b11111011 D
b111 N
b11111010 J
1.
1&
#230
0&
#231
b1111111 \
b1111111 _
b1111111 c
b11101110 [
b11101110 b
b11101110 g
14
b11111111111111111111111111111111 ;
b11111111111111111111111111111111 B
b11111111111111111111111111111111 P
b0 ^
b10 a
b10 >
b0 A
0*
0)
1%
0-
0.
b0 N
b11110100 J
b0 H
b11110111 D
b0 i
b0 e
1&
#232
0&
#233
1)
b1 e
01
b1111111 d
b1 i
10
b11101110 h
b1 H
b11101111 D
b1 N
b11101000 J
1.
1&
#234
0&
#235
0)
1-
0.
b11101000 K
b10 N
b11101000 8
b11101000 @
b11101000 L
b11010001 J
b11101111 E
b10 H
b11101111 9
b11101111 =
b11101111 F
b11011110 D
b10 i
11
b10 e
1&
#236
0&
#237
1+
1*
1)
b11 e
b11 i
b11 H
b10111101 D
b11 N
b10100011 J
1.
1&
#238
0&
#239
1R
1n
b11010100110111011101011101111101 Y
b11010100110111011101011101111101 ]
b11010100110111011101011101111101 l
0+
0*
0)
1'
0%
0-
0.
b100 N
b1000111 J
b100 H
b1111011 D
00
b100 i
b100 e
1&
#240
0&
#241
1)
b101 e
10
b101 i
b101 H
b11110111 D
b101 N
b10001110 J
1.
1&
#242
0&
#243
0)
1-
0.
b110 N
b11101 J
b110 H
b11101111 D
b110 i
b110 e
1&
#244
0&
#245
1*
1)
b111 e
b111 i
b111 H
b11011111 D
b111 N
b111011 J
1.
1&
#246
0&
#247
b11101000111111111111111111111111 ;
b11101000111111111111111111111111 B
b11101000111111111111111111111111 P
04
b11110100111111111110111111111111 <
b11110100111111111110111111111111 ?
b11110100111111111110111111111111 O
b11100100 [
b11100100 b
b11100100 g
b11010100 \
b11010100 _
b11010100 c
b1 A
b11 >
b11 a
b1 ^
0*
0)
1%
0-
0.
b0 N
b1110111 J
b0 H
b10111111 D
00
b0 i
b0 e
1&
#248
0&
#249
1)
b1 e
b11010100 d
b1 i
10
b11100100 h
b1 H
b1111111 D
b1 N
b11101110 J
1.
1&
#250
0&
#251
0)
1-
0.
b11101110 K
b10 N
b11101110 8
b11101110 @
b11101110 L
b11011101 J
b1111111 E
b10 H
b1111111 9
b1111111 =
b1111111 F
b11111111 D
b10 i
b10 e
1&
#252
0&
#253
1,
1+
1*
1)
01
b11 e
b11 i
b11 H
b11 N
b10111011 J
1.
1&
#254
0&
#255
0,
0+
0*
0)
0(
0'
0%
0-
0.
b100 N
b1110111 J
b100 H
b11111110 D
00
b100 i
11
b100 e
1&
#256
0&
#257
1)
01
b101 e
b101 i
b101 H
b11111101 D
b101 N
b11101110 J
1.
1&
#258
0&
#259
0)
1-
0.
b110 N
b11011100 J
b110 H
b11111010 D
10
b110 i
11
b110 e
1&
#260
0&
#261
1*
1)
01
b111 e
00
b111 i
b111 H
b11110101 D
b111 N
b10111001 J
1.
1&
#262
0&
#263
b11011101 \
b11011101 _
b11011101 c
b11101110 [
b11101110 b
b11101110 g
15
b11110100111111111110111101111111 <
b11110100111111111110111101111111 ?
b11110100111111111110111101111111 O
b11101000111011101111111111111111 ;
b11101000111011101111111111111111 B
b11101000111011101111111111111111 P
b10 ^
b0 a
b0 >
b10 A
0*
0)
1%
0-
0.
b0 N
b1110010 J
b0 H
b11101010 D
b0 i
b0 e
1&
#264
0&
#265
1)
b1 e
11
b11011101 d
b1 i
10
b11101110 h
b1 H
b11010100 D
b1 N
b11100100 J
1.
1&
#266
0&
#267
0)
1-
0.
b11100100 K
b10 N
b11100100 8
b11100100 @
b11100100 L
b11001001 J
b11010100 E
b10 H
b11010100 9
b11010100 =
b11010100 F
b10101001 D
b10 i
b10 e
1&
#268
0&
#269
1+
1*
1)
01
b11 e
b11 i
b11 H
b1010011 D
b11 N
b10010011 J
1.
1&
#270
0&
#271
b10001100110011000001110011001100 $
b10001100110011000001110011001100 3
b10001100110011000001110011001100 Z
b10001100110011000001110011001100 k
b10001100110011000001110011001100 p
b11010100110111011101011101111101 X
b11010100110111011101011101111101 `
b11010100110111011101011101111101 m
0n
b11110100111111111110111101111111 #
b11110100111111111110111101111111 2
b11110100111111111110111101111111 :
b11110100111111111110111101111111 Q
b11110100111111111110111101111111 o
0R
0+
0*
0)
1'
0%
0-
0.
b100 N
b100111 J
b100 H
b10100110 D
00
b100 i
11
b100 e
1&
#272
0&
#273
1)
b101 e
10
b101 i
b101 H
b1001101 D
b101 N
b1001110 J
1.
1&
#274
0&
#275
0)
1-
0.
b110 N
b10011101 J
b110 H
b10011011 D
b110 i
b110 e
1&
#276
0&
#277
1*
1)
01
b111 e
b111 i
b111 H
b110111 D
b111 N
b111011 J
1.
1&
#278
0&
#279
b11101000111011101110010011111111 ;
b11101000111011101110010011111111 B
b11101000111011101110010011111111 P
b11010100111111111110111101111111 <
b11010100111111111110111101111111 ?
b11010100111111111110111101111111 O
05
b11010100 [
b11010100 b
b11010100 g
b11010111 \
b11010111 _
b11010111 c
b11 A
b1 >
b1 a
b11 ^
0*
0)
1%
0-
0.
b0 N
b1110111 J
b0 H
b1101110 D
00
b0 i
11
b0 e
1&
#280
0&
#281
1)
b1 e
b11010111 d
b1 i
10
b11010100 h
b1 H
b11011101 D
b1 N
b11101110 J
1.
1&
#282
0&
#283
0)
1-
0.
b11101110 K
b10 N
b11101110 8
b11101110 @
b11101110 L
b11011101 J
b11011101 E
b10 H
b11011101 9
b11011101 =
b11011101 F
b10111011 D
b10 i
b10 e
1&
#284
0&
#285
1,
1+
1*
1)
01
b11 e
00
b11 i
b11 H
b1110111 D
b11 N
b10111011 J
1.
1&
#286
0&
#287
0,
0+
0*
0)
1(
0'
0%
0-
0.
b100 N
b1110110 J
b100 H
b11101110 D
10
b100 i
11
b100 e
1&
#288
0&
#289
1)
01
b101 e
00
b101 i
b101 H
b11011101 D
b101 N
b11101101 J
1.
1&
#290
0&
#291
0)
1-
0.
b110 N
b11011010 J
b110 H
b10111010 D
10
b110 i
11
b110 e
1&
#292
0&
#293
1*
1)
b111 e
00
b111 i
b111 H
b1110101 D
b111 N
b10110101 J
1.
1&
#294
0&
#295
b1111101 \
b1111101 _
b1111101 c
b11011101 [
b11011101 b
b11011101 g
b11010100110111011110111101111111 <
b11010100110111011110111101111111 ?
b11010100110111011110111101111111 O
14
b11101000111011101110010011101110 ;
b11101000111011101110010011101110 B
b11101000111011101110010011101110 P
b0 ^
b10 a
b10 >
b0 A
0*
0)
1%
0-
0.
b0 N
b1101010 J
b0 H
b11101011 D
b0 i
b0 e
1&
#296
0&
#297
1)
b1 e
01
b1111101 d
b1 i
10
b11011101 h
b1 H
b11010111 D
b1 N
b11010100 J
1.
1&
#298
0&
