paralelo_serial/paralelo_serial.vcd
$date
	Tue Oct 12 21:40:35 2021
$end
$version
	Icarus Verilog
$end
$timescale
	1ns
$end
$scope module BUF $end
$var wire 1 ! A $end
$var wire 1 " Y $end
$upscope $end
$scope module BancoPruebas_paralelo_serial $end
$var wire 1 # valid_in $end
$var wire 1 $ reset $end
$var wire 1 % data_out_synth $end
$var wire 1 & data_out $end
$var wire 8 ' data_in [7:0] $end
$var wire 8 ( data2send_synth [7:0] $end
$var wire 8 ) data2send [7:0] $end
$var wire 1 * clk_4f $end
$var wire 1 + clk_32f $end
$scope module paralelo_serial_synthbp $end
$var wire 1 # valid_in $end
$var wire 3 , selector1 [2:0] $end
$var wire 1 $ reset $end
$var wire 1 % data_out $end
$var wire 8 - data_in [7:0] $end
$var wire 8 . data2send [7:0] $end
$var wire 1 * clk_4f $end
$var wire 1 + clk_32f $end
$var wire 1 / _055_ $end
$var wire 1 0 _054_ $end
$var wire 1 1 _053_ $end
$var wire 1 2 _052_ $end
$var wire 1 3 _051_ $end
$var wire 1 4 _050_ $end
$var wire 1 5 _049_ $end
$var wire 1 6 _048_ $end
$var wire 1 7 _047_ $end
$var wire 1 8 _046_ $end
$var wire 1 9 _045_ $end
$var wire 1 : _044_ $end
$var wire 1 ; _043_ $end
$var wire 1 < _042_ $end
$var wire 1 = _041_ $end
$var wire 1 > _040_ $end
$var wire 1 ? _039_ $end
$var wire 1 @ _038_ $end
$var wire 1 A _037_ $end
$var wire 1 B _036_ $end
$var wire 1 C _035_ $end
$var wire 1 D _034_ $end
$var wire 1 E _033_ $end
$var wire 1 F _032_ $end
$var wire 1 G _031_ $end
$var wire 1 H _030_ $end
$var wire 1 I _029_ $end
$var wire 1 J _028_ $end
$var wire 1 K _027_ $end
$var wire 1 L _026_ $end
$var wire 1 M _025_ $end
$var wire 1 N _024_ $end
$var wire 1 O _023_ $end
$var wire 1 P _022_ $end
$var wire 1 Q _021_ $end
$var wire 1 R _020_ $end
$var wire 1 S _019_ $end
$var wire 1 T _018_ $end
$var wire 1 U _017_ $end
$var wire 1 V _016_ $end
$var wire 1 W _015_ $end
$var wire 1 X _014_ $end
$var wire 1 Y _013_ $end
$var wire 1 Z _012_ $end
$var wire 1 [ _011_ $end
$var wire 1 \ _010_ $end
$var wire 1 ] _009_ $end
$var wire 1 ^ _008_ $end
$var wire 1 _ _007_ $end
$var wire 1 ` _006_ $end
$var wire 1 a _005_ $end
$var wire 1 b _004_ $end
$var wire 1 c _003_ $end
$var wire 3 d _002_ [2:0] $end
$var wire 1 e _001_ $end
$var wire 8 f _000_ [7:0] $end
$scope module _056_ $end
$var wire 1 g A $end
$var wire 1 c Y $end
$upscope $end
$scope module _057_ $end
$var wire 1 h A $end
$var wire 1 b Y $end
$upscope $end
$scope module _058_ $end
$var wire 1 a Y $end
$var wire 1 # A $end
$upscope $end
$scope module _059_ $end
$var wire 1 ` Y $end
$var wire 1 $ A $end
$upscope $end
$scope module _060_ $end
$var wire 1 i A $end
$var wire 1 _ Y $end
$upscope $end
$scope module _061_ $end
$var wire 1 j A $end
$var wire 1 ^ Y $end
$upscope $end
$scope module _062_ $end
$var wire 1 k A $end
$var wire 1 ] Y $end
$upscope $end
$scope module _063_ $end
$var wire 1 l A $end
$var wire 1 \ Y $end
$upscope $end
$scope module _064_ $end
$var wire 1 m A $end
$var wire 1 [ Y $end
$upscope $end
$scope module _065_ $end
$var wire 1 n A $end
$var wire 1 Z Y $end
$var wire 1 # B $end
$upscope $end
$scope module _066_ $end
$var wire 1 o A $end
$var wire 1 Y Y $end
$var wire 1 # B $end
$upscope $end
$scope module _067_ $end
$var wire 1 ` B $end
$var wire 1 X Y $end
$var wire 1 # A $end
$upscope $end
$scope module _068_ $end
$var wire 1 ` A $end
$var wire 1 Z B $end
$var wire 1 W Y $end
$upscope $end
$scope module _069_ $end
$var wire 1 Y A $end
$var wire 1 W B $end
$var wire 1 p Y $end
$upscope $end
$scope module _070_ $end
$var wire 1 q A $end
$var wire 1 r B $end
$var wire 1 V Y $end
$upscope $end
$scope module _071_ $end
$var wire 1 V A $end
$var wire 1 U Y $end
$upscope $end
$scope module _072_ $end
$var wire 1 b A $end
$var wire 1 Z B $end
$var wire 1 T Y $end
$upscope $end
$scope module _073_ $end
$var wire 1 b A $end
$var wire 1 Z B $end
$var wire 1 S Y $end
$upscope $end
$scope module _074_ $end
$var wire 1 ` A $end
$var wire 1 S B $end
$var wire 1 R Y $end
$upscope $end
$scope module _075_ $end
$var wire 1 T A $end
$var wire 1 R B $end
$var wire 1 s Y $end
$upscope $end
$scope module _076_ $end
$var wire 1 t A $end
$var wire 1 T B $end
$var wire 1 Q Y $end
$upscope $end
$scope module _077_ $end
$var wire 1 c A $end
$var wire 1 b B $end
$var wire 1 P Y $end
$upscope $end
$scope module _078_ $end
$var wire 1 u A $end
$var wire 1 T B $end
$var wire 1 O Y $end
$upscope $end
$scope module _079_ $end
$var wire 1 ` A $end
$var wire 1 O B $end
$var wire 1 N Y $end
$upscope $end
$scope module _080_ $end
$var wire 1 Q A $end
$var wire 1 N B $end
$var wire 1 v Y $end
$upscope $end
$scope module _081_ $end
$var wire 1 _ A $end
$var wire 1 X B $end
$var wire 1 w Y $end
$upscope $end
$scope module _082_ $end
$var wire 1 ^ A $end
$var wire 1 X B $end
$var wire 1 x Y $end
$upscope $end
$scope module _083_ $end
$var wire 1 a A $end
$var wire 1 y B $end
$var wire 1 M Y $end
$upscope $end
$scope module _084_ $end
$var wire 1 M B $end
$var wire 1 z Y $end
$var wire 1 $ A $end
$upscope $end
$scope module _085_ $end
$var wire 1 a A $end
$var wire 1 { B $end
$var wire 1 L Y $end
$upscope $end
$scope module _086_ $end
$var wire 1 L B $end
$var wire 1 | Y $end
$var wire 1 $ A $end
$upscope $end
$scope module _087_ $end
$var wire 1 a A $end
$var wire 1 } B $end
$var wire 1 K Y $end
$upscope $end
$scope module _088_ $end
$var wire 1 K B $end
$var wire 1 ~ Y $end
$var wire 1 $ A $end
$upscope $end
$scope module _089_ $end
$var wire 1 a A $end
$var wire 1 !" B $end
$var wire 1 J Y $end
$upscope $end
$scope module _090_ $end
$var wire 1 J B $end
$var wire 1 "" Y $end
$var wire 1 $ A $end
$upscope $end
$scope module _091_ $end
$var wire 1 [ A $end
$var wire 1 X B $end
$var wire 1 #" Y $end
$upscope $end
$scope module _092_ $end
$var wire 1 a A $end
$var wire 1 $" B $end
$var wire 1 I Y $end
$upscope $end
$scope module _093_ $end
$var wire 1 I B $end
$var wire 1 %" Y $end
$var wire 1 $ A $end
$upscope $end
$scope module _094_ $end
$var wire 1 &" A $end
$var wire 1 '" B $end
$var wire 1 H Y $end
$upscope $end
$scope module _095_ $end
$var wire 1 (" A $end
$var wire 1 H B $end
$var wire 1 G Y $end
$upscope $end
$scope module _096_ $end
$var wire 1 c A $end
$var wire 1 G B $end
$var wire 1 F Y $end
$upscope $end
$scope module _097_ $end
$var wire 1 )" A $end
$var wire 1 b B $end
$var wire 1 E Y $end
$upscope $end
$scope module _098_ $end
$var wire 1 *" A $end
$var wire 1 E B $end
$var wire 1 D Y $end
$upscope $end
$scope module _099_ $end
$var wire 1 \ A $end
$var wire 1 V B $end
$var wire 1 C Y $end
$upscope $end
$scope module _100_ $end
$var wire 1 +" A $end
$var wire 1 b B $end
$var wire 1 B Y $end
$upscope $end
$scope module _101_ $end
$var wire 1 [ A $end
$var wire 1 B B $end
$var wire 1 A Y $end
$upscope $end
$scope module _102_ $end
$var wire 1 C A $end
$var wire 1 A B $end
$var wire 1 @ Y $end
$upscope $end
$scope module _103_ $end
$var wire 1 D A $end
$var wire 1 @ B $end
$var wire 1 ? Y $end
$upscope $end
$scope module _104_ $end
$var wire 1 F A $end
$var wire 1 ? B $end
$var wire 1 > Y $end
$upscope $end
$scope module _105_ $end
$var wire 1 ," A $end
$var wire 1 H B $end
$var wire 1 = Y $end
$upscope $end
$scope module _106_ $end
$var wire 1 ] A $end
$var wire 1 B B $end
$var wire 1 < Y $end
$upscope $end
$scope module _107_ $end
$var wire 1 -" A $end
$var wire 1 E B $end
$var wire 1 ; Y $end
$upscope $end
$scope module _108_ $end
$var wire 1 ." A $end
$var wire 1 U B $end
$var wire 1 : Y $end
$upscope $end
$scope module _109_ $end
$var wire 1 = A $end
$var wire 1 ; B $end
$var wire 1 9 Y $end
$upscope $end
$scope module _110_ $end
$var wire 1 c A $end
$var wire 1 < B $end
$var wire 1 8 Y $end
$upscope $end
$scope module _111_ $end
$var wire 1 : A $end
$var wire 1 8 B $end
$var wire 1 7 Y $end
$upscope $end
$scope module _112_ $end
$var wire 1 9 A $end
$var wire 1 7 B $end
$var wire 1 6 Y $end
$upscope $end
$scope module _113_ $end
$var wire 1 > A $end
$var wire 1 6 B $end
$var wire 1 5 Y $end
$upscope $end
$scope module _114_ $end
$var wire 1 a A $end
$var wire 1 5 B $end
$var wire 1 4 Y $end
$upscope $end
$scope module _115_ $end
$var wire 1 /" A $end
$var wire 1 B B $end
$var wire 1 3 Y $end
$upscope $end
$scope module _116_ $end
$var wire 1 P A $end
$var wire 1 3 B $end
$var wire 1 2 Y $end
$upscope $end
$scope module _117_ $end
$var wire 1 2 B $end
$var wire 1 1 Y $end
$var wire 1 # A $end
$upscope $end
$scope module _118_ $end
$var wire 1 1 B $end
$var wire 1 0 Y $end
$var wire 1 $ A $end
$upscope $end
$scope module _119_ $end
$var wire 1 0 A $end
$var wire 1 / Y $end
$upscope $end
$scope module _120_ $end
$var wire 1 4 A $end
$var wire 1 / B $end
$var wire 1 e Y $end
$upscope $end
$scope module _121_ $end
$var wire 1 e D $end
$var wire 1 + C $end
$var reg 1 % Q $end
$upscope $end
$scope module _122_ $end
$var wire 1 0" D $end
$var wire 1 + C $end
$var reg 1 1" Q $end
$upscope $end
$scope module _123_ $end
$var wire 1 2" D $end
$var wire 1 + C $end
$var reg 1 3" Q $end
$upscope $end
$scope module _124_ $end
$var wire 1 4" D $end
$var wire 1 + C $end
$var reg 1 5" Q $end
$upscope $end
$scope module _125_ $end
$var wire 1 6" D $end
$var wire 1 + C $end
$var reg 1 7" Q $end
$upscope $end
$scope module _126_ $end
$var wire 1 8" D $end
$var wire 1 + C $end
$var reg 1 9" Q $end
$upscope $end
$scope module _127_ $end
$var wire 1 :" D $end
$var wire 1 + C $end
$var reg 1 ;" Q $end
$upscope $end
$scope module _128_ $end
$var wire 1 <" D $end
$var wire 1 + C $end
$var reg 1 =" Q $end
$upscope $end
$scope module _129_ $end
$var wire 1 >" D $end
$var wire 1 + C $end
$var reg 1 ?" Q $end
$upscope $end
$scope module _130_ $end
$var wire 1 @" D $end
$var wire 1 + C $end
$var reg 1 A" Q $end
$upscope $end
$scope module _131_ $end
$var wire 1 B" D $end
$var wire 1 + C $end
$var reg 1 C" Q $end
$upscope $end
$scope module _132_ $end
$var wire 1 D" D $end
$var wire 1 + C $end
$var reg 1 E" Q $end
$upscope $end
$upscope $end
$scope module paralelo_serialbp $end
$var wire 1 # valid_in $end
$var wire 1 $ reset $end
$var wire 8 F" data_in [7:0] $end
$var wire 1 * clk_4f $end
$var wire 1 + clk_32f $end
$var reg 8 G" data2send [7:0] $end
$var reg 1 & data_out $end
$var reg 3 H" selector1 [2:0] $end
$var reg 3 I" selector2 [2:0] $end
$upscope $end
$scope module probador_paralelo_serialbp $end
$var wire 8 J" data2send [7:0] $end
$var wire 8 K" data2send_synth [7:0] $end
$var wire 1 & data_out $end
$var wire 1 % data_out_synth $end
$var reg 1 + clk_32f $end
$var reg 1 * clk_4f $end
$var reg 8 L" data_in [7:0] $end
$var reg 1 $ reset $end
$var reg 1 # valid_in $end
$upscope $end
$upscope $end
$scope module DFFSR $end
$var wire 1 M" C $end
$var wire 1 N" D $end
$var wire 1 O" R $end
$var wire 1 P" S $end
$var reg 1 Q" Q $end
$upscope $end
$enddefinitions $end
#0
$dumpvars
xQ"
zP"
zO"
zN"
zM"
b0 L"
bx K"
bx J"
bx I"
bx H"
bx G"
b0 F"
xE"
0D"
xC"
0B"
xA"
0@"
x?"
0>"
x="
0<"
x;"
0:"
x9"
08"
x7"
06"
x5"
04"
x3"
02"
x1"
00"
x/"
0."
0-"
0,"
x+"
0*"
x)"
0("
x'"
x&"
0%"
0$"
0#"
0""
0!"
0~
0}
0|
0{
0z
0y
0x
0w
0v
xu
xt
0s
xr
xq
0p
xo
xn
0m
0l
0k
0j
0i
xh
xg
b0 f
0e
b0 d
xc
xb
1a
0`
1_
1^
1]
1\
1[
1Z
xY
1X
1W
xV
xU
0T
xS
1R
xQ
xP
1O
1N
0M
0L
0K
0J
0I
xH
1G
xF
xE
1D
0C
xB
0A
1@
0?
x>
1=
0<
1;
1:
09
x8
x7
x6
x5
04
x3
x2
x1
00
1/
bx .
b0 -
bx ,
0+
0*
bx )
bx (
b0 '
x&
x%
1$
0#
z"
z!
$end
#1
01
05
06
12
1>
17
03
0U
0S
0P
0F
08
1B
0E
1Y
1H
1V
1Q
1b
1c
0+"
0)"
0&"
0q
0o
0n
0'"
0r
0h
0/"
0u
0t
0g
b0 )
b0 G"
b0 J"
b0 H"
b0 I"
0&
0%
01"
03"
b0 ,
05"
07"
09"
0;"
0="
0?"
0A"
0C"
b0 (
b0 .
b0 K"
0E"
1+
#2
0+
#3
1+
#4
0+
#5
1+
#6
0+
#7
1+
#8
0+
1*
#9
1+
#10
0+
#11
1+
#12
0+
#13
1+
#14
0+
#15
1+
#16
0+
0*
#17
1+
#18
0+
#19
1+
#20
0+
#21
1+
#22
0+
#23
1+
#24
0+
1*
#25
1+
#26
0+
#27
1+
#28
0+
#29
1+
#30
0+
#31
1+
#32
0+
0*
#33
1+
#34
0+
#35
1+
#36
0+
#37
1+
#38
0+
#39
1+
#40
1e
0/
1D"
1@"
1>"
1<"
1:"
0W
0N
10
1%"
1""
1~
1|
b10111100 f
1z
1`
0$
0+
1*
#41
b1 I"
1&
b10111100 )
b10111100 G"
b10111100 J"
1%
1;"
1="
1?"
1A"
b10111100 (
b10111100 .
b10111100 K"
1E"
1+
#42
0+
#43
b10 I"
1+
#44
0+
#45
b11 I"
1+
#46
0+
#47
b100 I"
1+
#48
0+
0*
#49
b101 I"
1+
#50
0+
#51
b110 I"
1+
#52
0+
#53
b111 I"
1+
#54
0+
#55
b0 I"
1+
#56
15
0>
19
1F
16"
18"
1B"
10"
1e
1w
1x
b11111111 f
1#"
b1 d
1p
0=
0G
04
0[
0\
0]
0^
0_
0X
0Y
1."
1-"
1,"
1*"
1("
1$"
1!"
1}
1{
1y
1m
1l
1k
1j
1i
0a
b11111111 '
b11111111 -
b11111111 F"
b11111111 L"
1#
0+
1*
#57
1e
04
15
12"
1?
0>
1s
00"
0@
02
0F
09
b10 d
0p
0R
1A
1<
13
1G
1=
1W
1S
0B
0H
0Z
1+"
1)"
1&"
1q
1o
1n
b1 H"
b11111111 )
b11111111 G"
b11111111 J"
b1 ,
11"
17"
19"
b11111111 (
b11111111 .
b11111111 K"
1C"
1+
#58
0+
#59
19
10"
1@
12
b11 d
1p
0D
0;
0A
0<
03
0W
1E
1B
1Z
0b
1'"
1r
1h
0+"
0)"
0&"
0q
0o
0n
13"
b10 ,
01"
b10 H"
1+
#60
0+
#61
1e
04
15
14"
0>
1v
00"
02"
1?
09
0@
0p
b100 d
0s
0Q
0:
1D
1;
1C
1W
1T
1U
0E
0V
0Z
1+"
1)"
1&"
1q
1o
1n
b11 H"
b11 ,
11"
1+
#62
0+
#63
14"
0?
07
10"
1v
02"
19
1@
1p
b101 d
0s
1R
1:
0N
1D
1;
0G
0=
0C
0W
1F
18
0T
0S
0U
1O
0E
1H
1V
1Z
0c
1b
1/"
1u
1t
1g
0'"
0r
0h
0+"
0)"
0&"
0q
0o
0n
15"
03"
b100 ,
01"
b100 H"
1+
#64
0+
0*
#65
1e
04
15
12"
1?
17
06
1s
00"
0@
08
09
b110 d
0p
0R
1A
1<
1G
1=
1W
1S
0B
0H
0Z
1+"
1)"
1&"
1q
1o
1n
b101 H"
b101 ,
11"
1+
#66
0+
#67
07
19
10"
1@
18
b111 d
1p
02
0D
0;
0A
0<
0W
1P
1E
1B
1Z
0b
1'"
1r
1h
0+"
0)"
0&"
0q
0o
0n
13"
b110 ,
01"
b110 H"
1+
#68
0+
#69
04"
0v
1N
17
00"
02"
1?
09
0@
0p
b0 d
0s
0O
0:
1D
1;
1C
1W
1T
1U
0E
0V
0Z
1+"
1)"
1&"
1q
1o
1n
b111 H"
b111 ,
11"
1+
#70
0+
#71
0?
10"
02"
19
1@
1p
b1 d
0s
1Q
1R
12
1:
0N
1D
1;
0G
0=
0C
0W
1F
08
0T
0S
0P
0U
1O
0E
1H
1V
1Z
1c
1b
0/"
0u
0t
0g
0'"
0r
0h
0+"
0)"
0&"
0q
0o
0n
05"
03"
b0 ,
01"
b0 H"
1+
#72
0>"
0~
06"
b11101110 f
0w
1K
1\
1_
0."
0}
0l
0i
b11101110 '
b11101110 -
b11101110 F"
b11101110 L"
0+
1*
#73
1e
04
15
12"
1?
0>
1s
00"
0@
02
0F
09
b10 d
0p
0R
1A
1<
13
1G
1=
1W
1S
0B
0H
0Z
1+"
1)"
1&"
1q
1o
1n
b1 H"
b11101110 )
b11101110 G"
b11101110 J"
b1 ,
11"
07"
b11101110 (
b11101110 .
b11101110 K"
0?"
1+
#74
0+
#75
19
10"
1@
12
b11 d
1p
0D
0;
0A
0<
03
0W
1E
1B
1Z
0b
1'"
1r
1h
0+"
0)"
0&"
0q
0o
0n
13"
b10 ,
01"
b10 H"
1+
#76
0+
#77
0e
14
05
14"
1>
1v
00"
02"
0?
09
0p
b100 d
0s
0Q
1D
1;
1W
1T
1U
0E
0V
0Z
1+"
1)"
1&"
1q
1o
1n
b11 H"
b11 ,
11"
1+
#78
0+
#79
1e
04
14"
15
10"
1v
02"
0?
19
1p
0>
07
b101 d
0s
1R
0N
1D
1;
0G
0=
0W
1F
18
0T
0S
0U
1O
0E
1H
1V
1Z
0c
1b
1/"
1u
1t
1g
0'"
0r
0h
0+"
0)"
0&"
0q
0o
0n
15"
03"
b100 ,
01"
0%
0&
b100 H"
1+
#80
0+
0*
#81
1e
04
15
12"
1?
17
06
1s
00"
0@
08
09
b110 d
0p
0R
1A
1<
1G
1=
1W
1S
0B
0H
0Z
1+"
1)"
1&"
1q
1o
1n
1&
b101 H"
1%
b101 ,
11"
1+
#82
0+
#83
07
19
10"
1@
18
b111 d
1p
02
0D
0;
0A
0<
0W
1P
1E
1B
1Z
0b
1'"
1r
1h
0+"
0)"
0&"
0q
0o
0n
13"
b110 ,
01"
b110 H"
1+
#84
0+
#85
0e
14
04"
05
0v
16
1N
00"
02"
0?
09
0p
b0 d
0s
0O
1D
1;
1W
1T
1U
0E
0V
0Z
1+"
1)"
1&"
1q
1o
1n
b111 H"
b111 ,
11"
1+
#86
0+
#87
1e
04
15
06
10"
02"
0?
19
1p
0>
17
b1 d
0s
1Q
1R
12
0N
1D
1;
0G
0=
0W
1F
08
0T
0S
0P
0U
1O
0E
1H
1V
1Z
1c
1b
0/"
0u
0t
0g
0'"
0r
0h
0+"
0)"
0&"
0q
0o
0n
05"
03"
b0 ,
01"
0%
0&
b0 H"
1+
#88
0@"
1>"
0""
1~
08"
16"
0x
b11011101 f
1w
1J
0K
0\
1^
0_
1."
0-"
0*"
0!"
1}
1l
0j
1i
b11011101 '
b11011101 -
b11011101 F"
b11011101 L"
0+
1*
#89
1e
04
15
12"
1?
0>
1s
00"
0@
02
0F
09
b10 d
0p
0R
1A
1<
13
1G
1=
1W
1S
0B
0H
0Z
1+"
1)"
1&"
1q
1o
1n
b1 H"
1&
b11011101 )
b11011101 G"
b11011101 J"
1%
b1 ,
11"
17"
09"
1?"
b11011101 (
b11011101 .
b11011101 K"
0A"
1+
#90
0+
#91
0e
14
05
1>
0?
10"
1@
12
b11 d
1p
0A
0<
03
0W
1E
1B
1Z
0b
1'"
1r
1h
0+"
0)"
0&"
0q
0o
0n
13"
b10 ,
01"
b10 H"
1+
#92
0+
#93
1e
04
15
0>
14"
1?
1v
00"
02"
0@
0p
b100 d
0s
0Q
0:
1C
1W
1T
1U
0E
0V
0Z
1+"
1)"
1&"
1q
1o
1n
0&
b11 H"
0%
b11 ,
11"
1+
#94
0+
#95
0?
14"
07
10"
1v
02"
19
1@
1p
b101 d
0s
1R
1:
0N
0G
0=
0C
0W
1F
18
0T
0S
0U
1O
0E
1H
1V
1Z
0c
1b
1/"
1u
1t
1g
0'"
0r
0h
0+"
0)"
0&"
0q
0o
0n
15"
03"
b100 ,
01"
1%
1&
b100 H"
1+
#96
0+
0*
#97
1e
04
15
12"
1?
17
06
1s
00"
0@
08
09
b110 d
0p
0R
1A
1<
1G
1=
1W
1S
0B
0H
0Z
1+"
1)"
1&"
1q
1o
1n
b101 H"
b101 ,
11"
1+
#98
0+
#99
0e
14
05
16
0?
07
10"
1@
18
b111 d
1p
02
0A
0<
0W
1P
1E
1B
1Z
0b
1'"
1r
1h
0+"
0)"
0&"
0q
0o
0n
13"
b110 ,
01"
b110 H"
1+
#100
0+
#101
1e
04
15
04"
0v
06
1?
1N
17
00"
02"
0@
0p
b0 d
0s
0O
0:
1C
1W
1T
1U
0E
0V
0Z
1+"
1)"
1&"
1q
1o
1n
0&
b111 H"
0%
b111 ,
11"
1+
#102
0+
#103
0?
10"
02"
19
1@
1p
b1 d
0s
1Q
1R
12
1:
0N
0G
0=
0C
0W
1F
08
0T
0S
0P
0U
1O
0E
1H
1V
1Z
1c
1b
0/"
0u
0t
0g
0'"
0r
0h
0+"
0)"
0&"
0q
0o
0n
05"
03"
b0 ,
01"
1%
1&
b0 H"
1+
#104
1@"
06"
0B"
00"
1""
0w
b10111100 f
0#"
b0 d
0p
0J
1[
1\
1]
0^
1_
1X
1Y
0."
1-"
1*"
1!"
0}
0y
0m
0l
0k
1j
0i
1a
b10101010 '
b10101010 -
b10101010 F"
b10101010 L"
0#
0+
1*
#105
b1 I"
b10111100 )
b10111100 G"
b10111100 J"
07"
1A"
b10111100 (
b10111100 .
b10111100 K"
0C"
1+
#106
0+
#107
b10 I"
1+
#108
0+
#109
b11 I"
1+
#110
0+
#111
b100 I"
1+
#112
0+
0*
#113
b101 I"
1+
#114
0+
#115
b110 I"
1+
#116
0+
#117
b111 I"
1+
#118
0+
#119
b0 I"
1+
#120
0>"
0@"
1B"
10"
0~
0""
b11001100 f
1#"
b1 d
1p
1K
1J
0[
0]
1^
0X
0Y
0-"
0*"
0!"
1y
1m
1k
0j
0a
b11001100 '
b11001100 -
b11001100 F"
b11001100 L"
1#
0+
1*
#121
1e
04
15
12"
1?
0>
1s
00"
0@
02
0F
09
b10 d
0p
0R
1A
1<
13
1G
1=
1W
1S
0B
0H
0Z
1+"
1)"
1&"
1q
1o
1n
b1 H"
b11001100 )
b11001100 G"
b11001100 J"
b1 ,
11"
0?"
0A"
b11001100 (
b11001100 .
b11001100 K"
1C"
1+
#122
0+
#123
0e
14
05
1>
0?
10"
1@
12
b11 d
1p
0A
0<
03
0W
1E
1B
1Z
0b
1'"
1r
1h
0+"
0)"
0&"
0q
0o
0n
13"
b10 ,
01"
b10 H"
1+
#124
0+
#125
14"
1v
00"
02"
0p
b100 d
0s
0Q
1W
1T
1U
0E
0V
0Z
1+"
1)"
1&"
1q
1o
1n
0&
b11 H"
0%
b11 ,
11"
1+
#126
0+
#127
1e
04
14"
15
10"
1v
02"
19
1p
0>
07
b101 d
0s
1R
0N
0G
0=
0W
1F
18
0T
0S
0U
1O
0E
1H
1V
1Z
0c
1b
1/"
1u
1t
1g
0'"
0r
0h
0+"
0)"
0&"
0q
0o
0n
15"
03"
b100 ,
01"
b100 H"
1+
#128
0+
0*
#129
1e
04
15
12"
1?
17
06
1s
00"
0@
08
09
b110 d
0p
0R
1A
1<
1G
1=
1W
1S
0B
0H
0Z
1+"
1)"
1&"
1q
1o
1n
1&
b101 H"
1%
b101 ,
11"
1+
#130
0+
#131
0e
14
05
16
0?
07
10"
1@
18
b111 d
1p
02
0A
0<
0W
1P
1E
1B
1Z
0b
1'"
1r
1h
0+"
0)"
0&"
0q
0o
0n
13"
b110 ,
01"
b110 H"
1+
#132
0+
#133
04"
0v
1N
00"
02"
0p
b0 d
0s
0O
1W
1T
1U
0E
0V
0Z
1+"
1)"
1&"
1q
1o
1n
0&
b111 H"
0%
b111 ,
11"
1+
#134
0+
#135
1e
04
15
06
10"
02"
19
1p
0>
17
b1 d
0s
1Q
1R
12
0N
0G
0=
0W
1F
08
0T
0S
0P
0U
1O
0E
1H
1V
1Z
1c
1b
0/"
0u
0t
0g
0'"
0r
0h
0+"
0)"
0&"
0q
0o
0n
05"
03"
b0 ,
01"
b0 H"
1+
#136
1@"
1>"
0:"
1""
1~
0z
0B"
18"
16"
0#"
1x
b10111011 f
1w
0J
0K
1M
1[
0\
1]
0^
0_
1."
1-"
1*"
1!"
1}
0y
0m
1l
0k
1j
1i
b10111011 '
b10111011 -
b10111011 F"
b10111011 L"
0+
1*
#137
0e
14
05
12"
1>
1s
00"
02
0F
09
b10 d
0p
0R
13
1G
1=
1W
1S
0B
0H
0Z
1+"
1)"
1&"
1q
1o
1n
b1 H"
1&
b10111011 )
b10111011 G"
b10111011 J"
1%
b1 ,
11"
17"
19"
0;"
1?"
1A"
b10111011 (
b10111011 .
b10111011 K"
0C"
1+
#138
0+
#139
1e
04
15
0>
1?
19
10"
12
b11 d
1p
0D
0;
03
0W
1E
1B
1Z
0b
1'"
1r
1h
0+"
0)"
0&"
0q
0o
0n
13"
b10 ,
01"
0%
0&
b10 H"
1+
#140
0+
#141
1e
04
15
14"
0>
1v
00"
02"
1?
09
0@
0p
b100 d
0s
0Q
0:
1D
1;
1C
1W
1T
1U
0E
0V
0Z
1+"
1)"
1&"
1q
1o
1n
1&
b11 H"
1%
b11 ,
11"
1+
#142
0+
#143
14"
0?
07
10"
1v
02"
19
1@
1p
b101 d
0s
1R
1:
0N
1D
1;
0G
0=
0C
0W
1F
18
0T
0S
0U
1O
0E
1H
1V
1Z
0c
1b
1/"
1u
1t
1g
0'"
0r
0h
0+"
0)"
0&"
0q
0o
0n
15"
03"
b100 ,
01"
b100 H"
1+
#144
0+
0*
#145
0e
14
05
12"
16
1s
00"
09
b110 d
0p
0R
1G
1=
1W
1S
0B
0H
0Z
1+"
1)"
1&"
1q
1o
1n
b101 H"
b101 ,
11"
1+
#146
0+
#147
1e
04
15
06
1?
19
10"
b111 d
1p
02
0D
0;
0W
1P
1E
1B
1Z
0b
1'"
1r
1h
0+"
0)"
0&"
0q
0o
0n
13"
b110 ,
01"
0%
0&
b110 H"
1+
#148
0+
#149
04"
0v
1N
17
00"
02"
1?
09
0@
0p
b0 d
0s
0O
0:
1D
1;
1C
1W
1T
1U
0E
0V
0Z
1+"
1)"
1&"
1q
1o
1n
1&
b111 H"
1%
b111 ,
11"
1+
#150
0+
#151
0?
10"
02"
19
1@
1p
b1 d
0s
1Q
1R
12
1:
0N
1D
1;
0G
0=
0C
0W
1F
08
0T
0S
0P
0U
1O
0E
1H
1V
1Z
1c
1b
0/"
0u
0t
0g
0'"
0r
0h
0+"
0)"
0&"
0q
0o
0n
05"
03"
b0 ,
01"
b0 H"
1+
#152
0>"
0~
06"
b10101010 f
0w
1K
1\
1_
0."
0}
0l
0i
b10101010 '
b10101010 -
b10101010 F"
b10101010 L"
0+
1*
#153
0e
14
05
12"
1>
1s
00"
02
0F
09
b10 d
0p
0R
13
1G
1=
1W
1S
0B
0H
0Z
1+"
1)"
1&"
1q
1o
1n
b1 H"
b10101010 )
b10101010 G"
b10101010 J"
b1 ,
11"
07"
b10101010 (
b10101010 .
b10101010 K"
0?"
1+
#154
0+
#155
1e
04
15
0>
1?
19
10"
12
b11 d
1p
0D
0;
03
0W
1E
1B
1Z
0b
1'"
1r
1h
0+"
0)"
0&"
0q
0o
0n
13"
b10 ,
01"
0%
0&
b10 H"
1+
#156
0+
#157
0e
14
05
14"
1>
1v
00"
02"
0?
09
0p
b100 d
0s
0Q
1D
1;
1W
1T
1U
0E
0V
0Z
1+"
1)"
1&"
1q
1o
1n
1&
b11 H"
1%
b11 ,
11"
1+
#158
0+
#159
1e
04
14"
15
10"
1v
02"
0?
19
1p
0>
07
b101 d
0s
1R
0N
1D
1;
0G
0=
0W
1F
18
0T
0S
0U
1O
0E
1H
1V
1Z
0c
1b
1/"
1u
1t
1g
0'"
0r
0h
0+"
0)"
0&"
0q
0o
0n
15"
03"
b100 ,
01"
0%
0&
b100 H"
1+
#160
0+
0*
#161
0e
14
05
12"
16
1s
00"
09
b110 d
0p
0R
1G
1=
1W
1S
0B
0H
0Z
1+"
1)"
1&"
1q
1o
1n
1&
b101 H"
1%
b101 ,
11"
1+
#162
0+
#163
1e
04
15
06
1?
19
10"
b111 d
1p
02
0D
0;
0W
1P
1E
1B
1Z
0b
1'"
1r
1h
0+"
0)"
0&"
0q
0o
0n
13"
b110 ,
01"
0%
0&
b110 H"
1+
#164
0+
#165
0e
14
04"
05
0v
16
1N
00"
02"
0?
09
0p
b0 d
0s
0O
1D
1;
1W
1T
1U
0E
0V
0Z
1+"
1)"
1&"
1q
1o
1n
1&
b111 H"
1%
b111 ,
11"
1+
#166
0+
#167
1e
04
15
06
10"
02"
0?
19
1p
0>
17
b1 d
0s
1Q
1R
12
0N
1D
1;
0G
0=
0W
1F
08
0T
0S
0P
0U
1O
0E
1H
1V
1Z
1c
1b
0/"
0u
0t
0g
0'"
0r
0h
0+"
0)"
0&"
0q
0o
0n
05"
03"
b0 ,
01"
0%
0&
b0 H"
1+
