paralelo_serial/paralelo_serial.vcd
$date
	Tue Oct 19 18:04:13 2021
$end
$version
	Icarus Verilog
$end
$timescale
	1ns
$end
$scope module BUF $end
$var wire 1 ! A $end
$var wire 1 " Y $end
$upscope $end
$scope module BancoPruebas_paralelo_serial $end
$var wire 1 # valid_in $end
$var wire 1 $ reset $end
$var wire 1 % data_out_synth $end
$var wire 1 & data_out $end
$var wire 8 ' data_in [7:0] $end
$var wire 8 ( data2send_synth [7:0] $end
$var wire 8 ) data2send [7:0] $end
$var wire 1 * clk_4f $end
$var wire 1 + clk_32f $end
$scope module paralelo_serial_synthbp $end
$var wire 1 # valid_in $end
$var wire 3 , selector2 [2:0] $end
$var wire 3 - selector1 [2:0] $end
$var wire 1 $ reset $end
$var wire 1 % data_out $end
$var wire 8 . data_in [7:0] $end
$var wire 8 / data2send [7:0] $end
$var wire 1 * clk_4f $end
$var wire 1 + clk_32f $end
$var wire 1 0 _067_ $end
$var wire 1 1 _066_ $end
$var wire 1 2 _065_ $end
$var wire 1 3 _064_ $end
$var wire 1 4 _063_ $end
$var wire 1 5 _062_ $end
$var wire 1 6 _061_ $end
$var wire 1 7 _060_ $end
$var wire 1 8 _059_ $end
$var wire 1 9 _058_ $end
$var wire 1 : _057_ $end
$var wire 1 ; _056_ $end
$var wire 1 < _055_ $end
$var wire 1 = _054_ $end
$var wire 1 > _053_ $end
$var wire 1 ? _052_ $end
$var wire 1 @ _051_ $end
$var wire 1 A _050_ $end
$var wire 1 B _049_ $end
$var wire 1 C _048_ $end
$var wire 1 D _047_ $end
$var wire 1 E _046_ $end
$var wire 1 F _045_ $end
$var wire 1 G _044_ $end
$var wire 1 H _043_ $end
$var wire 1 I _042_ $end
$var wire 1 J _041_ $end
$var wire 1 K _040_ $end
$var wire 1 L _039_ $end
$var wire 1 M _038_ $end
$var wire 1 N _037_ $end
$var wire 1 O _036_ $end
$var wire 1 P _035_ $end
$var wire 1 Q _034_ $end
$var wire 1 R _033_ $end
$var wire 1 S _032_ $end
$var wire 1 T _031_ $end
$var wire 1 U _030_ $end
$var wire 1 V _029_ $end
$var wire 1 W _028_ $end
$var wire 1 X _027_ $end
$var wire 1 Y _026_ $end
$var wire 1 Z _025_ $end
$var wire 1 [ _024_ $end
$var wire 1 \ _023_ $end
$var wire 1 ] _022_ $end
$var wire 1 ^ _021_ $end
$var wire 1 _ _020_ $end
$var wire 1 ` _019_ $end
$var wire 1 a _018_ $end
$var wire 1 b _017_ $end
$var wire 1 c _016_ $end
$var wire 1 d _015_ $end
$var wire 1 e _014_ $end
$var wire 1 f _013_ $end
$var wire 1 g _012_ $end
$var wire 1 h _011_ $end
$var wire 1 i _010_ $end
$var wire 1 j _009_ $end
$var wire 1 k _008_ $end
$var wire 1 l _007_ $end
$var wire 1 m _006_ $end
$var wire 1 n _005_ $end
$var wire 1 o _004_ $end
$var wire 3 p _003_ [2:0] $end
$var wire 3 q _002_ [2:0] $end
$var wire 1 r _001_ $end
$var wire 8 s _000_ [7:0] $end
$scope module _068_ $end
$var wire 1 t A $end
$var wire 1 e Y $end
$upscope $end
$scope module _069_ $end
$var wire 1 u A $end
$var wire 1 d Y $end
$upscope $end
$scope module _070_ $end
$var wire 1 v A $end
$var wire 1 c Y $end
$upscope $end
$scope module _071_ $end
$var wire 1 w A $end
$var wire 1 b Y $end
$upscope $end
$scope module _072_ $end
$var wire 1 a Y $end
$var wire 1 # A $end
$upscope $end
$scope module _073_ $end
$var wire 1 ` Y $end
$var wire 1 $ A $end
$upscope $end
$scope module _074_ $end
$var wire 1 x A $end
$var wire 1 _ Y $end
$upscope $end
$scope module _075_ $end
$var wire 1 y A $end
$var wire 1 ^ Y $end
$upscope $end
$scope module _076_ $end
$var wire 1 z A $end
$var wire 1 ] Y $end
$upscope $end
$scope module _077_ $end
$var wire 1 { A $end
$var wire 1 \ Y $end
$var wire 1 # B $end
$upscope $end
$scope module _078_ $end
$var wire 1 | A $end
$var wire 1 [ Y $end
$var wire 1 # B $end
$upscope $end
$scope module _079_ $end
$var wire 1 ` B $end
$var wire 1 Z Y $end
$var wire 1 # A $end
$upscope $end
$scope module _080_ $end
$var wire 1 ` A $end
$var wire 1 \ B $end
$var wire 1 Y Y $end
$upscope $end
$scope module _081_ $end
$var wire 1 [ A $end
$var wire 1 Y B $end
$var wire 1 } Y $end
$upscope $end
$scope module _082_ $end
$var wire 1 c A $end
$var wire 1 \ B $end
$var wire 1 X Y $end
$upscope $end
$scope module _083_ $end
$var wire 1 c A $end
$var wire 1 \ B $end
$var wire 1 W Y $end
$upscope $end
$scope module _084_ $end
$var wire 1 ` A $end
$var wire 1 W B $end
$var wire 1 V Y $end
$upscope $end
$scope module _085_ $end
$var wire 1 X A $end
$var wire 1 V B $end
$var wire 1 ~ Y $end
$upscope $end
$scope module _086_ $end
$var wire 1 !" A $end
$var wire 1 X B $end
$var wire 1 U Y $end
$upscope $end
$scope module _087_ $end
$var wire 1 "" A $end
$var wire 1 X B $end
$var wire 1 T Y $end
$upscope $end
$scope module _088_ $end
$var wire 1 T B $end
$var wire 1 S Y $end
$var wire 1 $ A $end
$upscope $end
$scope module _089_ $end
$var wire 1 U A $end
$var wire 1 S B $end
$var wire 1 R Y $end
$upscope $end
$scope module _090_ $end
$var wire 1 R A $end
$var wire 1 #" Y $end
$upscope $end
$scope module _091_ $end
$var wire 1 _ A $end
$var wire 1 Z B $end
$var wire 1 $" Y $end
$upscope $end
$scope module _092_ $end
$var wire 1 ^ A $end
$var wire 1 Z B $end
$var wire 1 %" Y $end
$upscope $end
$scope module _093_ $end
$var wire 1 a A $end
$var wire 1 &" B $end
$var wire 1 Q Y $end
$upscope $end
$scope module _094_ $end
$var wire 1 Q B $end
$var wire 1 '" Y $end
$var wire 1 $ A $end
$upscope $end
$scope module _095_ $end
$var wire 1 a A $end
$var wire 1 (" B $end
$var wire 1 P Y $end
$upscope $end
$scope module _096_ $end
$var wire 1 P B $end
$var wire 1 )" Y $end
$var wire 1 $ A $end
$upscope $end
$scope module _097_ $end
$var wire 1 a A $end
$var wire 1 *" B $end
$var wire 1 O Y $end
$upscope $end
$scope module _098_ $end
$var wire 1 O B $end
$var wire 1 +" Y $end
$var wire 1 $ A $end
$upscope $end
$scope module _099_ $end
$var wire 1 a A $end
$var wire 1 ," B $end
$var wire 1 N Y $end
$upscope $end
$scope module _100_ $end
$var wire 1 N B $end
$var wire 1 -" Y $end
$var wire 1 $ A $end
$upscope $end
$scope module _101_ $end
$var wire 1 ] A $end
$var wire 1 Z B $end
$var wire 1 ." Y $end
$upscope $end
$scope module _102_ $end
$var wire 1 a A $end
$var wire 1 /" B $end
$var wire 1 M Y $end
$upscope $end
$scope module _103_ $end
$var wire 1 M B $end
$var wire 1 0" Y $end
$var wire 1 $ A $end
$upscope $end
$scope module _104_ $end
$var wire 1 d A $end
$var wire 1 L Y $end
$var wire 1 # B $end
$upscope $end
$scope module _105_ $end
$var wire 1 d A $end
$var wire 1 K Y $end
$var wire 1 # B $end
$upscope $end
$scope module _106_ $end
$var wire 1 ` A $end
$var wire 1 K B $end
$var wire 1 J Y $end
$upscope $end
$scope module _107_ $end
$var wire 1 L A $end
$var wire 1 J B $end
$var wire 1 1" Y $end
$upscope $end
$scope module _108_ $end
$var wire 1 2" A $end
$var wire 1 L B $end
$var wire 1 I Y $end
$upscope $end
$scope module _109_ $end
$var wire 1 3" A $end
$var wire 1 L B $end
$var wire 1 H Y $end
$upscope $end
$scope module _110_ $end
$var wire 1 H B $end
$var wire 1 G Y $end
$var wire 1 $ A $end
$upscope $end
$scope module _111_ $end
$var wire 1 I A $end
$var wire 1 G B $end
$var wire 1 F Y $end
$upscope $end
$scope module _112_ $end
$var wire 1 F A $end
$var wire 1 4" Y $end
$upscope $end
$scope module _113_ $end
$var wire 1 e A $end
$var wire 1 I B $end
$var wire 1 E Y $end
$upscope $end
$scope module _114_ $end
$var wire 1 e A $end
$var wire 1 I B $end
$var wire 1 D Y $end
$upscope $end
$scope module _115_ $end
$var wire 1 ` A $end
$var wire 1 D B $end
$var wire 1 C Y $end
$upscope $end
$scope module _116_ $end
$var wire 1 E A $end
$var wire 1 C B $end
$var wire 1 5" Y $end
$upscope $end
$scope module _117_ $end
$var wire 1 6" A $end
$var wire 1 7" B $end
$var wire 1 B Y $end
$upscope $end
$scope module _118_ $end
$var wire 1 b A $end
$var wire 1 8" B $end
$var wire 1 A Y $end
$upscope $end
$scope module _119_ $end
$var wire 1 B A $end
$var wire 1 A B $end
$var wire 1 @ Y $end
$upscope $end
$scope module _120_ $end
$var wire 1 9" A $end
$var wire 1 @ B $end
$var wire 1 ? Y $end
$upscope $end
$scope module _121_ $end
$var wire 1 :" A $end
$var wire 1 ] B $end
$var wire 1 > Y $end
$upscope $end
$scope module _122_ $end
$var wire 1 ;" A $end
$var wire 1 <" B $end
$var wire 1 = Y $end
$upscope $end
$scope module _123_ $end
$var wire 1 =" A $end
$var wire 1 = B $end
$var wire 1 < Y $end
$upscope $end
$scope module _124_ $end
$var wire 1 > A $end
$var wire 1 < B $end
$var wire 1 ; Y $end
$upscope $end
$scope module _125_ $end
$var wire 1 ? A $end
$var wire 1 ; B $end
$var wire 1 : Y $end
$upscope $end
$scope module _126_ $end
$var wire 1 >" A $end
$var wire 1 : B $end
$var wire 1 9 Y $end
$upscope $end
$scope module _127_ $end
$var wire 1 ?" A $end
$var wire 1 @" B $end
$var wire 1 8 Y $end
$upscope $end
$scope module _128_ $end
$var wire 1 b A $end
$var wire 1 A" B $end
$var wire 1 7 Y $end
$upscope $end
$scope module _129_ $end
$var wire 1 8 A $end
$var wire 1 7 B $end
$var wire 1 6 Y $end
$upscope $end
$scope module _130_ $end
$var wire 1 B" A $end
$var wire 1 6 B $end
$var wire 1 5 Y $end
$upscope $end
$scope module _131_ $end
$var wire 1 C" A $end
$var wire 1 D" B $end
$var wire 1 4 Y $end
$upscope $end
$scope module _132_ $end
$var wire 1 4 A $end
$var wire 1 3 Y $end
$upscope $end
$scope module _133_ $end
$var wire 1 b A $end
$var wire 1 E" B $end
$var wire 1 2 Y $end
$upscope $end
$scope module _134_ $end
$var wire 1 F" A $end
$var wire 1 2 B $end
$var wire 1 1 Y $end
$upscope $end
$scope module _135_ $end
$var wire 1 3 A $end
$var wire 1 1 B $end
$var wire 1 0 Y $end
$upscope $end
$scope module _136_ $end
$var wire 1 5 A $end
$var wire 1 0 B $end
$var wire 1 o Y $end
$upscope $end
$scope module _137_ $end
$var wire 1 c A $end
$var wire 1 o B $end
$var wire 1 n Y $end
$upscope $end
$scope module _138_ $end
$var wire 1 9 A $end
$var wire 1 n B $end
$var wire 1 m Y $end
$upscope $end
$scope module _139_ $end
$var wire 1 a A $end
$var wire 1 m B $end
$var wire 1 l Y $end
$upscope $end
$scope module _140_ $end
$var wire 1 G" A $end
$var wire 1 H" B $end
$var wire 1 k Y $end
$upscope $end
$scope module _141_ $end
$var wire 1 I" A $end
$var wire 1 k B $end
$var wire 1 j Y $end
$upscope $end
$scope module _142_ $end
$var wire 1 J" A $end
$var wire 1 K" B $end
$var wire 1 i Y $end
$upscope $end
$scope module _143_ $end
$var wire 1 j A $end
$var wire 1 i B $end
$var wire 1 h Y $end
$upscope $end
$scope module _144_ $end
$var wire 1 a A $end
$var wire 1 h B $end
$var wire 1 g Y $end
$upscope $end
$scope module _145_ $end
$var wire 1 ` A $end
$var wire 1 g B $end
$var wire 1 f Y $end
$upscope $end
$scope module _146_ $end
$var wire 1 l A $end
$var wire 1 f B $end
$var wire 1 r Y $end
$upscope $end
$scope module _147_ $end
$var wire 1 r D $end
$var wire 1 + C $end
$var reg 1 % Q $end
$upscope $end
$scope module _148_ $end
$var wire 1 L" D $end
$var wire 1 + C $end
$var reg 1 M" Q $end
$upscope $end
$scope module _149_ $end
$var wire 1 N" D $end
$var wire 1 + C $end
$var reg 1 O" Q $end
$upscope $end
$scope module _150_ $end
$var wire 1 P" D $end
$var wire 1 + C $end
$var reg 1 Q" Q $end
$upscope $end
$scope module _151_ $end
$var wire 1 R" D $end
$var wire 1 + C $end
$var reg 1 S" Q $end
$upscope $end
$scope module _152_ $end
$var wire 1 T" D $end
$var wire 1 + C $end
$var reg 1 U" Q $end
$upscope $end
$scope module _153_ $end
$var wire 1 V" D $end
$var wire 1 + C $end
$var reg 1 W" Q $end
$upscope $end
$scope module _154_ $end
$var wire 1 X" D $end
$var wire 1 + C $end
$var reg 1 Y" Q $end
$upscope $end
$scope module _155_ $end
$var wire 1 Z" D $end
$var wire 1 + C $end
$var reg 1 [" Q $end
$upscope $end
$scope module _156_ $end
$var wire 1 \" D $end
$var wire 1 + C $end
$var reg 1 ]" Q $end
$upscope $end
$scope module _157_ $end
$var wire 1 ^" D $end
$var wire 1 + C $end
$var reg 1 _" Q $end
$upscope $end
$scope module _158_ $end
$var wire 1 `" D $end
$var wire 1 + C $end
$var reg 1 a" Q $end
$upscope $end
$scope module _159_ $end
$var wire 1 b" D $end
$var wire 1 + C $end
$var reg 1 c" Q $end
$upscope $end
$scope module _160_ $end
$var wire 1 d" D $end
$var wire 1 + C $end
$var reg 1 e" Q $end
$upscope $end
$scope module _161_ $end
$var wire 1 f" D $end
$var wire 1 + C $end
$var reg 1 g" Q $end
$upscope $end
$upscope $end
$scope module paralelo_serialbp $end
$var wire 1 # valid_in $end
$var wire 1 $ reset $end
$var wire 8 h" data_in [7:0] $end
$var wire 1 * clk_4f $end
$var wire 1 + clk_32f $end
$var reg 8 i" data2send [7:0] $end
$var reg 1 & data_out $end
$var reg 3 j" selector1 [2:0] $end
$var reg 3 k" selector2 [2:0] $end
$upscope $end
$scope module probador_paralelo_serialbp $end
$var wire 8 l" data2send [7:0] $end
$var wire 8 m" data2send_synth [7:0] $end
$var wire 1 & data_out $end
$var wire 1 % data_out_synth $end
$var reg 1 + clk_32f $end
$var reg 1 * clk_4f $end
$var reg 8 n" data_in [7:0] $end
$var reg 1 $ reset $end
$var reg 1 # valid_in $end
$upscope $end
$upscope $end
$scope module DFFSR $end
$var wire 1 o" C $end
$var wire 1 p" D $end
$var wire 1 q" R $end
$var wire 1 r" S $end
$var reg 1 s" Q $end
$upscope $end
$enddefinitions $end
#0
$dumpvars
xs"
zr"
zq"
zp"
zo"
b0 n"
bx m"
b0 l"
b0 k"
b0 j"
b0 i"
b0 h"
xg"
0f"
xe"
0d"
xc"
0b"
xa"
0`"
x_"
0^"
x]"
0\"
x["
0Z"
xY"
0X"
xW"
0V"
xU"
0T"
xS"
0R"
xQ"
0P"
xO"
0N"
xM"
0L"
xK"
xJ"
xI"
xH"
xG"
xF"
0E"
0D"
xC"
xB"
0A"
0@"
x?"
x>"
x="
0<"
x;"
x:"
x9"
08"
07"
x6"
05"
04"
x3"
x2"
01"
00"
0/"
0."
0-"
0,"
0+"
0*"
0)"
0("
0'"
0&"
0%"
0$"
0#"
x""
x!"
0~
0}
x|
x{
0z
0y
0x
xw
xv
xu
xt
b0 s
0r
b0 q
b0 p
xo
xn
xm
0l
xk
xj
xi
xh
xg
1f
xe
xd
xc
xb
1a
0`
1_
1^
1]
1\
x[
1Z
1Y
0X
xW
1V
1U
xT
0S
1R
0Q
0P
0O
0N
0M
xL
1K
1J
xI
xH
0G
1F
xE
xD
1C
xB
xA
x@
x?
0>
1=
x<
x;
x:
x9
x8
x7
x6
x5
14
03
12
x1
x0
bx /
b0 .
bx -
bx ,
1+
1*
b0 )
bx (
b0 '
0&
x%
1$
0#
z"
z!
$end
#1
0+
#2
0m
19
0o
0:
1g
15
1?
1H
0h
06
0@
00
0;
0E
0D
0L
0A
07
0W
0n
1i
1k
1I
1j
18
1B
1T
11
1<
1[
1e
1d
1b
1c
0J"
0G"
0t
0K"
0H"
03"
02"
0I"
0u
0C"
0?"
0;"
0:"
06"
0""
0!"
0w
0>"
0v
0F"
0B"
0="
09"
0|
0{
0g"
0e"
0c"
0a"
0_"
0]"
0["
b0 (
b0 /
b0 m"
0Y"
0W"
0U"
b0 ,
0S"
0Q"
0O"
b0 -
0M"
0%
1+
#3
0+
#4
1+
#5
0+
#6
1+
#7
0+
#8
1+
0*
#9
0+
#10
1+
#11
0+
#12
1+
#13
0+
#14
1+
#15
0+
#16
1+
1*
#17
0+
#18
1+
#19
0+
#20
1+
#21
0+
#22
1+
#23
0+
#24
1+
0*
#25
0+
#26
1+
#27
0+
#28
1+
#29
0+
#30
1+
#31
0+
#32
1R"
b1 p
11"
1r
1f"
1b"
1`"
1^"
1\"
0Y
0J
0f
10"
1-"
1+"
1)"
b10111100 s
1'"
1`
0$
1+
1*
#33
0+
#34
1T"
0r
14"
0F
1f
1G
0g
0R"
b10 p
01"
0H
1h
1L
0j
0d
1I"
1u
1g"
1c"
1a"
1_"
b10111100 (
b10111100 /
b10111100 m"
1]"
b1 ,
1S"
1%
b1 k"
1&
b10111100 )
b10111100 i"
b10111100 l"
1+
#35
0+
#36
1r
0V"
0f
05"
1g
1R"
1T"
1C
11"
b11 p
14"
0h
0F
0D
0L
1j
0k
1I
1d
0I"
0u
1K"
1H"
13"
12"
0&
b10 k"
0%
0S"
b10 ,
1U"
1+
#37
0+
#38
1V"
15"
0T"
0C
04"
1F
1D
0R"
b100 p
01"
0I
1L
0d
1I"
1u
b11 ,
1S"
1%
1&
b11 k"
1+
#39
0+
#40
0G
1R"
0T"
1V"
11"
1H
04"
b101 p
15"
1F
0L
0E
1I
1d
0e
0I"
0u
0K"
0H"
03"
02"
1J"
1G"
1t
b100 k"
0S"
0U"
b100 ,
1W"
1+
0*
#41
0+
#42
1T"
14"
0F
1G
0R"
b110 p
01"
0H
1L
0d
1I"
1u
b101 ,
1S"
b101 k"
1+
#43
0+
#44
0r
1f
1V"
1R"
0g
1T"
15"
11"
b111 p
14"
1h
0F
0E
0L
0i
1I
1d
0I"
0u
1K"
1H"
13"
12"
b110 k"
0S"
b110 ,
1U"
1+
#45
0+
#46
0V"
0T"
05"
04"
1F
1E
0R"
b0 p
01"
0I
1L
0d
1I"
1u
b111 ,
1S"
0%
0&
b111 k"
1+
#47
0+
#48
1r
1m
09
1o
1:
0T"
1C
0V"
05
0?
1J
04"
05"
0G
1F
0D
0h
16
1@
0R"
1X"
1Z"
1d"
1L"
0f
0K
0E
1>
b0 p
01"
1$"
1%"
b11111111 s
1."
b1 q
1}
1H
1I
1i
1k
02
08
0B
0l
1g
1d
1e
0]
0^
0_
0L
0Z
0[
0I"
0u
0K"
0H"
03"
02"
0J"
0G"
0t
1E"
1D"
1A"
1@"
1<"
18"
17"
1/"
1,"
1*"
1("
1&"
1z
1y
1x
0a
b0 k"
0S"
0U"
b0 ,
0W"
b11111111 '
b11111111 .
b11111111 h"
b11111111 n"
1#
1+
1*
#49
0+
#50
1N"
1~
0L"
b10 q
0}
0V
1Y
1W
0<
0\
1F"
1B"
1="
19"
1|
1{
1e"
1["
b11111111 (
b11111111 /
b11111111 m"
1Y"
b1 -
1M"
1%
b1 j"
1&
b11111111 )
b11111111 i"
b11111111 l"
1+
#51
0+
#52
0P"
0#"
1R
1L"
0S
1}
1N"
b11 q
1~
1T
0Y
0X
1<
1\
0c
0F"
0B"
0="
09"
0|
0{
1>"
1v
b10 j"
0M"
b10 -
1O"
1+
#53
0+
#54
1P"
1#"
0R
1S
0L"
0N"
0}
b100 q
0~
0T
1Y
1X
0<
0\
1F"
1B"
1="
19"
1|
1{
b11 -
1M"
b11 j"
1+
#55
0+
#56
1L"
1}
1V
0N"
1P"
0~
b101 q
1#"
0Y
0W
0R
0X
13
12
1<
1\
04
0=
0>
1U
1c
0b
0F"
0B"
0="
09"
0|
0{
0>"
0v
1C"
1?"
1;"
1:"
16"
1""
1!"
1w
b100 j"
0M"
0O"
b100 -
1Q"
1+
0*
#57
0+
#58
1N"
1~
0L"
b110 q
0}
0V
1Y
1W
01
0\
1F"
1B"
1="
19"
1|
1{
b101 -
1M"
b101 j"
1+
#59
0+
#60
1P"
1#"
1L"
0R
1}
1N"
b111 q
1~
1U
0Y
0X
11
1\
0c
0F"
0B"
0="
09"
0|
0{
1>"
1v
b110 j"
0M"
b110 -
1O"
1+
#61
0+
#62
0P"
0#"
1R
0L"
0N"
0}
b0 q
0~
0U
1Y
1X
01
0\
1F"
1B"
1="
19"
1|
1{
b111 -
1M"
b111 j"
1+
#63
0+
#64
1L"
0S
1}
1V
0N"
0P"
0~
1T
b1 q
0#"
0`"
0Y
0W
1R
0+"
0X"
0X
03
b11101110 s
0$"
11
1\
1=
1>
1U
14
1O
1c
1b
1_
0F"
0B"
0="
09"
0|
0{
0>"
0v
0C"
0?"
0;"
0:"
06"
0""
0!"
0w
0E"
0D"
0*"
0x
b0 j"
0M"
0O"
b0 -
0Q"
b11101110 '
b11101110 .
b11101110 h"
b11101110 n"
1+
1*
#65
0+
#66
1N"
1~
0L"
0o
b10 q
0}
0V
10
1Y
1W
01
0<
0\
1F"
1B"
1="
19"
1|
1{
0a"
b11101110 (
b11101110 /
b11101110 m"
0Y"
b1 -
1M"
b1 j"
b11101110 )
b11101110 i"
b11101110 l"
1+
#67
0+
#68
0P"
0#"
1R
1r
1L"
0S
0l
1o
1}
1N"
b11 q
1~
1T
1m
00
0Y
0X
0n
11
1<
1\
0c
0F"
0B"
0="
09"
0|
0{
1>"
1v
b10 j"
0M"
b10 -
1O"
1+
#69
0+
#70
0r
1l
1P"
1#"
0m
0R
1n
1S
0L"
0N"
0o
0}
b100 q
0~
0T
10
1Y
1X
01
0<
0\
1F"
1B"
1="
19"
1|
1{
b11 -
1M"
b11 j"
1+
#71
0+
#72
1r
1L"
0l
1o
1}
1V
0N"
1P"
0~
1m
b101 q
1#"
00
0Y
0W
0R
0X
0n
11
1<
1\
0=
0>
1U
1c
0b
0F"
0B"
0="
09"
0|
0{
0>"
0v
1C"
1?"
1;"
1:"
16"
1""
1!"
1w
0&
b100 j"
0%
0M"
0O"
b100 -
1Q"
1+
0*
#73
0+
#74
1N"
1~
0L"
0o
b110 q
0}
0V
10
1Y
1W
01
0\
1F"
1B"
1="
19"
1|
1{
b101 -
1M"
1%
1&
b101 j"
1+
#75
0+
#76
1P"
1r
1#"
1L"
0R
0l
1o
1}
1N"
b111 q
1~
1U
1m
00
0Y
0X
0n
11
1\
0c
0F"
0B"
0="
09"
0|
0{
1>"
1v
b110 j"
0M"
b110 -
1O"
1+
#77
0+
#78
0r
1l
0m
0P"
0#"
1n
1R
0L"
0N"
0o
0}
b0 q
0~
0U
10
1Y
1X
01
0\
1F"
1B"
1="
19"
1|
1{
b111 -
1M"
b111 j"
1+
#79
0+
#80
1r
1L"
0S
0l
0o
1}
1V
0N"
0P"
15
0~
1T
1m
b1 q
0#"
0b"
1`"
00
0Y
0W
1R
06
0-"
1+"
0Z"
1X"
0X
0n
02
0%"
b11011101 s
1$"
11
1\
1=
1>
1U
07
18
1N
0O
1c
1b
1^
0_
0F"
0B"
0="
09"
0|
0{
0>"
0v
0C"
0?"
0;"
0:"
06"
0""
0!"
0w
1E"
1D"
0A"
0@"
0,"
1*"
0y
1x
0&
b0 j"
0%
0M"
0O"
b0 -
0Q"
b11011101 '
b11011101 .
b11011101 h"
b11011101 n"
1+
1*
#81
0+
#82
1N"
1~
0L"
b10 q
0}
0V
1o
1Y
1W
05
0<
0\
1F"
1B"
1="
19"
1|
1{
0c"
1a"
0["
b11011101 (
b11011101 /
b11011101 m"
1Y"
b1 -
1M"
1%
b1 j"
1&
b11011101 )
b11011101 i"
b11011101 l"
1+
#83
0+
#84
0r
0P"
1l
0#"
1R
0m
1L"
0S
1n
1}
1N"
b11 q
1~
1T
0o
0Y
0X
15
1<
1\
0c
0F"
0B"
0="
09"
0|
0{
1>"
1v
b10 j"
0M"
b10 -
1O"
1+
#85
0+
#86
1r
1P"
1#"
0l
0R
1m
1S
0L"
0N"
0n
0}
b100 q
0~
0T
1o
1Y
1X
05
0<
0\
1F"
1B"
1="
19"
1|
1{
b11 -
1M"
0%
0&
b11 j"
1+
#87
0+
#88
1L"
1}
1V
0N"
1P"
0~
b101 q
1#"
0o
0Y
0W
0R
0X
13
17
12
15
1<
1\
04
08
0=
0>
1U
1c
0b
0F"
0B"
0="
09"
0|
0{
0>"
0v
1C"
1?"
1;"
1:"
16"
1""
1!"
1w
1&
b100 j"
1%
0M"
0O"
b100 -
1Q"
1+
0*
#89
0+
#90
1N"
1~
0L"
b110 q
0}
0V
1o
1Y
1W
01
05
0\
1F"
1B"
1="
19"
1|
1{
b101 -
1M"
b101 j"
1+
#91
0+
#92
0r
1l
1P"
0m
1#"
1L"
0R
1n
1}
1N"
b111 q
1~
1U
0o
0Y
0X
11
15
1\
0c
0F"
0B"
0="
09"
0|
0{
1>"
1v
b110 j"
0M"
b110 -
1O"
1+
#93
0+
#94
1r
0l
0P"
0#"
1m
1R
0L"
0N"
0n
0}
b0 q
0~
0U
1o
1Y
1X
01
05
0\
1F"
1B"
1="
19"
1|
1{
b111 -
1M"
0%
0&
b111 j"
1+
#95
0+
#96
0S
0P"
1R"
0N"
0#"
b1 p
11"
b0 q
0~
1T
1V
1b"
1o
1R
16
0X"
0d"
1-"
03
0J
0$"
b10111100 s
0."
0Y
0X
0W
11
05
1[
1U
14
07
1=
0N
1c
1b
1]
0^
1_
1K
1Z
1\
0F"
0B"
0="
09"
0|
0{
0>"
0v
0C"
0?"
0;"
0:"
06"
0""
0!"
0w
0E"
0D"
1A"
1@"
0<"
1,"
0*"
0&"
0z
1y
0x
1a
1&
b0 j"
1%
0M"
0O"
b0 -
0Q"
b10101010 '
b10101010 .
b10101010 h"
b10101010 n"
0#
1+
1*
#97
0+
#98
1T"
0r
14"
0F
1f
1G
0g
0R"
b10 p
01"
0H
1h
1L
0j
0d
1I"
1u
0e"
1c"
b10111100 (
b10111100 /
b10111100 m"
0Y"
b1 ,
1S"
b1 k"
b10111100 )
b10111100 i"
b10111100 l"
1+
#99
0+
#100
1r
0V"
0f
05"
1g
1R"
1T"
1C
11"
b11 p
14"
0h
0F
0D
0L
1j
0k
1I
1d
0I"
0u
1K"
1H"
13"
12"
0&
b10 k"
0%
0S"
b10 ,
1U"
1+
#101
0+
#102
1V"
15"
0T"
0C
04"
1F
1D
0R"
b100 p
01"
0I
1L
0d
1I"
1u
b11 ,
1S"
1%
1&
b11 k"
1+
#103
0+
#104
0G
1R"
0T"
1V"
11"
1H
04"
b101 p
15"
1F
0L
0E
1I
1d
0e
0I"
0u
0K"
0H"
03"
02"
1J"
1G"
1t
b100 k"
0S"
0U"
b100 ,
1W"
1+
0*
#105
0+
#106
1T"
14"
0F
1G
0R"
b110 p
01"
0H
1L
0d
1I"
1u
b101 ,
1S"
b101 k"
1+
#107
0+
#108
0r
1f
1V"
1R"
0g
1T"
15"
11"
b111 p
14"
1h
0F
0E
0L
0i
1I
1d
0I"
0u
1K"
1H"
13"
12"
b110 k"
0S"
b110 ,
1U"
1+
#109
0+
#110
0V"
0T"
05"
04"
1F
1E
0R"
b0 p
01"
0I
1L
0d
1I"
1u
b111 ,
1S"
0%
0&
b111 k"
1+
#111
0+
#112
0o
0T"
1C
0V"
15
1r
1J
04"
05"
0`"
0b"
0G
1F
0D
0h
06
0R"
1d"
1L"
0+"
0-"
0f
0K
0E
1>
b0 p
01"
b11001100 s
1."
b1 q
1}
1H
1I
1i
1k
18
1O
1N
1g
1d
1e
0]
1^
0L
0Z
0[
0I"
0u
0K"
0H"
03"
02"
0J"
0G"
0t
0A"
0@"
1<"
0,"
1&"
1z
0y
0a
b0 k"
0S"
0U"
b0 ,
0W"
b11001100 '
b11001100 .
b11001100 h"
b11001100 n"
1#
1+
1*
#113
0+
#114
1N"
1~
0L"
b10 q
0}
0V
10
0o
1Y
1W
01
05
0<
0\
1F"
1B"
1="
19"
1|
1{
1e"
0c"
b11001100 (
b11001100 /
b11001100 m"
0a"
b1 -
1M"
1%
b1 j"
1&
b11001100 )
b11001100 i"
b11001100 l"
1+
#115
0+
#116
0P"
0#"
1R
0r
1L"
0S
1l
1}
1N"
b11 q
1~
1T
0m
00
0Y
0X
1n
11
15
1<
1\
0c
0F"
0B"
0="
09"
0|
0{
1>"
1v
b10 j"
0M"
b10 -
1O"
1+
#117
0+
#118
0r
1P"
1#"
1l
0R
0m
1S
0L"
0N"
1n
0}
b100 q
0~
0T
10
0o
1Y
1X
01
05
0<
0\
1F"
1B"
1="
19"
1|
1{
b11 -
1M"
0%
0&
b11 j"
1+
#119
0+
#120
1r
1L"
0l
1}
1V
0N"
1P"
0~
1m
b101 q
1#"
00
0Y
0W
0R
0X
0n
17
11
15
1<
1\
08
0=
0>
1U
1c
0b
0F"
0B"
0="
09"
0|
0{
0>"
0v
1C"
1?"
1;"
1:"
16"
1""
1!"
1w
b100 j"
0M"
0O"
b100 -
1Q"
1+
0*
#121
0+
#122
1N"
1~
0L"
b110 q
0}
0V
10
0o
1Y
1W
01
05
0\
1F"
1B"
1="
19"
1|
1{
b101 -
1M"
1%
1&
b101 j"
1+
#123
0+
#124
1P"
0r
1#"
1L"
0R
1l
1}
1N"
b111 q
1~
1U
0m
00
0Y
0X
1n
11
15
1\
0c
0F"
0B"
0="
09"
0|
0{
1>"
1v
b110 j"
0M"
b110 -
1O"
1+
#125
0+
#126
0r
1l
0P"
0#"
0m
1R
0L"
0N"
1n
0}
b0 q
0~
0U
10
0o
1Y
1X
01
05
0\
1F"
1B"
1="
19"
1|
1{
b111 -
1M"
0%
0&
b111 j"
1+
#127
0+
