serial_paralelo/serial_paralelo.vcd
$date
	Thu Oct 21 21:53:07 2021
$end
$version
	Icarus Verilog
$end
$timescale
	1ns
$end
$scope module BUF $end
$var wire 1 ! A $end
$var wire 1 " Y $end
$upscope $end
$scope module BancoPruebas_serial_paralelo $end
$var wire 1 # valid_out_synth $end
$var wire 1 $ valid_out $end
$var wire 1 % reset $end
$var wire 8 & data_out_synth [7:0] $end
$var wire 8 ' data_out [7:0] $end
$var wire 1 ( data_in $end
$var wire 1 ) clk_4f $end
$var wire 1 * clk_32f $end
$var wire 1 + active_synth $end
$var wire 1 , active $end
$scope module probador_serial_paralelobp $end
$var wire 1 # valid_out_synth $end
$var wire 1 $ valid_out $end
$var wire 8 - data_out_synth [7:0] $end
$var wire 8 . data_out [7:0] $end
$var wire 1 + active_synth $end
$var wire 1 , active $end
$var reg 1 * clk_32f $end
$var reg 1 ) clk_4f $end
$var reg 1 ( data_in $end
$var reg 1 % reset $end
$upscope $end
$scope module serial_paralelo_synthbp $end
$var wire 1 * clk_32f $end
$var wire 1 ) clk_4f $end
$var wire 1 ( data_in $end
$var wire 1 % reset $end
$var wire 1 # valid_out $end
$var wire 8 / data_out [7:0] $end
$var wire 8 0 data2send [7:0] $end
$var wire 1 + active $end
$var wire 1 1 _090_ $end
$var wire 1 2 _089_ $end
$var wire 1 3 _088_ $end
$var wire 1 4 _087_ $end
$var wire 1 5 _086_ $end
$var wire 1 6 _085_ $end
$var wire 1 7 _084_ $end
$var wire 1 8 _083_ $end
$var wire 1 9 _082_ $end
$var wire 1 : _081_ $end
$var wire 1 ; _080_ $end
$var wire 1 < _079_ $end
$var wire 1 = _078_ $end
$var wire 1 > _077_ $end
$var wire 1 ? _076_ $end
$var wire 1 @ _075_ $end
$var wire 1 A _074_ $end
$var wire 1 B _073_ $end
$var wire 1 C _072_ $end
$var wire 1 D _071_ $end
$var wire 1 E _070_ $end
$var wire 1 F _069_ $end
$var wire 1 G _068_ $end
$var wire 1 H _067_ $end
$var wire 1 I _066_ $end
$var wire 1 J _065_ $end
$var wire 1 K _064_ $end
$var wire 1 L _063_ $end
$var wire 1 M _062_ $end
$var wire 1 N _061_ $end
$var wire 1 O _060_ $end
$var wire 1 P _059_ $end
$var wire 1 Q _058_ $end
$var wire 1 R _057_ $end
$var wire 1 S _056_ $end
$var wire 1 T _055_ $end
$var wire 1 U _054_ $end
$var wire 1 V _053_ $end
$var wire 1 W _052_ $end
$var wire 1 X _051_ $end
$var wire 1 Y _050_ $end
$var wire 1 Z _049_ $end
$var wire 1 [ _048_ $end
$var wire 1 \ _047_ $end
$var wire 1 ] _046_ $end
$var wire 1 ^ _045_ $end
$var wire 1 _ _044_ $end
$var wire 1 ` _043_ $end
$var wire 1 a _042_ $end
$var wire 1 b _041_ $end
$var wire 1 c _040_ $end
$var wire 1 d _039_ $end
$var wire 1 e _038_ $end
$var wire 1 f _037_ $end
$var wire 1 g _036_ $end
$var wire 1 h _035_ $end
$var wire 1 i _034_ $end
$var wire 1 j _033_ $end
$var wire 1 k _032_ $end
$var wire 1 l _031_ $end
$var wire 1 m _030_ $end
$var wire 1 n _029_ $end
$var wire 1 o _028_ $end
$var wire 1 p _027_ $end
$var wire 1 q _026_ $end
$var wire 1 r _025_ $end
$var wire 1 s _024_ $end
$var wire 1 t _023_ $end
$var wire 1 u _022_ $end
$var wire 1 v _021_ $end
$var wire 1 w _020_ $end
$var wire 1 x _019_ $end
$var wire 1 y _018_ $end
$var wire 1 z _017_ $end
$var wire 1 { _016_ $end
$var wire 1 | _015_ $end
$var wire 1 } _014_ $end
$var wire 1 ~ _013_ $end
$var wire 1 !" _012_ $end
$var wire 1 "" _011_ $end
$var wire 1 #" _010_ $end
$var wire 1 $" _009_ $end
$var wire 1 %" _008_ $end
$var wire 1 &" _007_ $end
$var wire 1 '" _006_ $end
$var wire 1 (" _005_ $end
$var wire 1 )" _004_ $end
$var wire 8 *" _003_ [7:0] $end
$var wire 8 +" _002_ [7:0] $end
$var wire 1 ," _001_ $end
$var wire 4 -" _000_ [3:0] $end
$var wire 4 ." BC_counter [3:0] $end
$scope module _091_ $end
$var wire 1 /" A $end
$var wire 1 f Y $end
$var wire 1 E B $end
$upscope $end
$scope module _092_ $end
$var wire 1 f A $end
$var wire 1 e Y $end
$upscope $end
$scope module _093_ $end
$var wire 1 e B $end
$var wire 1 d Y $end
$var wire 1 g A $end
$upscope $end
$scope module _094_ $end
$var wire 1 d B $end
$var wire 1 0" Y $end
$var wire 1 > A $end
$upscope $end
$scope module _095_ $end
$var wire 1 1" A $end
$var wire 1 c Y $end
$var wire 1 D B $end
$upscope $end
$scope module _096_ $end
$var wire 1 2" A $end
$var wire 1 b Y $end
$var wire 1 E B $end
$upscope $end
$scope module _097_ $end
$var wire 1 c A $end
$var wire 1 b B $end
$var wire 1 a Y $end
$upscope $end
$scope module _098_ $end
$var wire 1 a A $end
$var wire 1 ` Y $end
$upscope $end
$scope module _099_ $end
$var wire 1 ` B $end
$var wire 1 3" Y $end
$var wire 1 > A $end
$upscope $end
$scope module _100_ $end
$var wire 1 _ Y $end
$var wire 1 t B $end
$var wire 1 R A $end
$upscope $end
$scope module _101_ $end
$var wire 1 4" A $end
$var wire 1 ^ Y $end
$var wire 1 E B $end
$upscope $end
$scope module _102_ $end
$var wire 1 ^ A $end
$var wire 1 ] Y $end
$upscope $end
$scope module _103_ $end
$var wire 1 _ A $end
$var wire 1 ] B $end
$var wire 1 \ Y $end
$upscope $end
$scope module _104_ $end
$var wire 1 \ B $end
$var wire 1 5" Y $end
$var wire 1 > A $end
$upscope $end
$scope module _105_ $end
$var wire 1 6" A $end
$var wire 1 [ Y $end
$upscope $end
$scope module _106_ $end
$var wire 1 % A $end
$var wire 1 Z Y $end
$upscope $end
$scope module _107_ $end
$var wire 1 7" A $end
$var wire 1 Y Y $end
$upscope $end
$scope module _108_ $end
$var wire 1 8" A $end
$var wire 1 X Y $end
$upscope $end
$scope module _109_ $end
$var wire 1 9" A $end
$var wire 1 W Y $end
$upscope $end
$scope module _110_ $end
$var wire 1 :" A $end
$var wire 1 V Y $end
$upscope $end
$scope module _111_ $end
$var wire 1 ;" A $end
$var wire 1 U Y $end
$upscope $end
$scope module _112_ $end
$var wire 1 <" A $end
$var wire 1 T Y $end
$upscope $end
$scope module _113_ $end
$var wire 1 =" A $end
$var wire 1 S Y $end
$upscope $end
$scope module _114_ $end
$var wire 1 >" A $end
$var wire 1 R Y $end
$upscope $end
$scope module _115_ $end
$var wire 1 ?" A $end
$var wire 1 @" B $end
$var wire 1 Q Y $end
$upscope $end
$scope module _116_ $end
$var wire 1 A" A $end
$var wire 1 B" B $end
$var wire 1 P Y $end
$upscope $end
$scope module _117_ $end
$var wire 1 Q A $end
$var wire 1 P B $end
$var wire 1 O Y $end
$upscope $end
$scope module _118_ $end
$var wire 1 O A $end
$var wire 1 N Y $end
$upscope $end
$scope module _119_ $end
$var wire 1 C" A $end
$var wire 1 D" B $end
$var wire 1 M Y $end
$upscope $end
$scope module _120_ $end
$var wire 1 M A $end
$var wire 1 L Y $end
$upscope $end
$scope module _121_ $end
$var wire 1 E" A $end
$var wire 1 Y B $end
$var wire 1 K Y $end
$upscope $end
$scope module _122_ $end
$var wire 1 [ A $end
$var wire 1 F" B $end
$var wire 1 J Y $end
$upscope $end
$scope module _123_ $end
$var wire 1 L A $end
$var wire 1 J B $end
$var wire 1 I Y $end
$upscope $end
$scope module _124_ $end
$var wire 1 M A $end
$var wire 1 K B $end
$var wire 1 H Y $end
$upscope $end
$scope module _125_ $end
$var wire 1 N A $end
$var wire 1 H B $end
$var wire 1 G Y $end
$upscope $end
$scope module _126_ $end
$var wire 1 O A $end
$var wire 1 I B $end
$var wire 1 F Y $end
$upscope $end
$scope module _127_ $end
$var wire 1 G" A $end
$var wire 1 H" B $end
$var wire 1 E Y $end
$upscope $end
$scope module _128_ $end
$var wire 1 T A $end
$var wire 1 S B $end
$var wire 1 D Y $end
$upscope $end
$scope module _129_ $end
$var wire 1 D B $end
$var wire 1 C Y $end
$var wire 1 # A $end
$upscope $end
$scope module _130_ $end
$var wire 1 % A $end
$var wire 1 F B $end
$var wire 1 B Y $end
$upscope $end
$scope module _131_ $end
$var wire 1 C A $end
$var wire 1 B B $end
$var wire 1 )" Y $end
$upscope $end
$scope module _132_ $end
$var wire 1 F A $end
$var wire 1 D B $end
$var wire 1 A Y $end
$upscope $end
$scope module _133_ $end
$var wire 1 G A $end
$var wire 1 E B $end
$var wire 1 @ Y $end
$upscope $end
$scope module _134_ $end
$var wire 1 Z A $end
$var wire 1 A B $end
$var wire 1 ? Y $end
$upscope $end
$scope module _135_ $end
$var wire 1 % A $end
$var wire 1 @ B $end
$var wire 1 > Y $end
$upscope $end
$scope module _136_ $end
$var wire 1 D B $end
$var wire 1 = Y $end
$var wire 1 + A $end
$upscope $end
$scope module _137_ $end
$var wire 1 > A $end
$var wire 1 = B $end
$var wire 1 ," Y $end
$upscope $end
$scope module _138_ $end
$var wire 1 % A $end
$var wire 1 ( B $end
$var wire 1 < Y $end
$upscope $end
$scope module _139_ $end
$var wire 1 < A $end
$var wire 1 I" Y $end
$upscope $end
$scope module _140_ $end
$var wire 1 J" A $end
$var wire 1 % B $end
$var wire 1 ; Y $end
$upscope $end
$scope module _141_ $end
$var wire 1 ; A $end
$var wire 1 K" Y $end
$upscope $end
$scope module _142_ $end
$var wire 1 L" A $end
$var wire 1 % B $end
$var wire 1 : Y $end
$upscope $end
$scope module _143_ $end
$var wire 1 : A $end
$var wire 1 M" Y $end
$upscope $end
$scope module _144_ $end
$var wire 1 % A $end
$var wire 1 N" B $end
$var wire 1 9 Y $end
$upscope $end
$scope module _145_ $end
$var wire 1 9 A $end
$var wire 1 O" Y $end
$upscope $end
$scope module _146_ $end
$var wire 1 % A $end
$var wire 1 P" B $end
$var wire 1 8 Y $end
$upscope $end
$scope module _147_ $end
$var wire 1 8 A $end
$var wire 1 Q" Y $end
$upscope $end
$scope module _148_ $end
$var wire 1 % A $end
$var wire 1 R" B $end
$var wire 1 7 Y $end
$upscope $end
$scope module _149_ $end
$var wire 1 7 A $end
$var wire 1 S" Y $end
$upscope $end
$scope module _150_ $end
$var wire 1 % A $end
$var wire 1 T" B $end
$var wire 1 6 Y $end
$upscope $end
$scope module _151_ $end
$var wire 1 6 A $end
$var wire 1 U" Y $end
$upscope $end
$scope module _152_ $end
$var wire 1 V" A $end
$var wire 1 % B $end
$var wire 1 5 Y $end
$upscope $end
$scope module _153_ $end
$var wire 1 5 A $end
$var wire 1 W" Y $end
$upscope $end
$scope module _154_ $end
$var wire 1 U A $end
$var wire 1 @ B $end
$var wire 1 4 Y $end
$upscope $end
$scope module _155_ $end
$var wire 1 % A $end
$var wire 1 4 B $end
$var wire 1 3 Y $end
$upscope $end
$scope module _156_ $end
$var wire 1 X" A $end
$var wire 1 G B $end
$var wire 1 2 Y $end
$upscope $end
$scope module _157_ $end
$var wire 1 D A $end
$var wire 1 2 B $end
$var wire 1 1 Y $end
$upscope $end
$scope module _158_ $end
$var wire 1 3 A $end
$var wire 1 1 B $end
$var wire 1 Y" Y $end
$upscope $end
$scope module _159_ $end
$var wire 1 Z" A $end
$var wire 1 1 B $end
$var wire 1 (" Y $end
$upscope $end
$scope module _160_ $end
$var wire 1 [" A $end
$var wire 1 \" B $end
$var wire 1 '" Y $end
$upscope $end
$scope module _161_ $end
$var wire 1 % A $end
$var wire 1 '" B $end
$var wire 1 &" Y $end
$upscope $end
$scope module _162_ $end
$var wire 1 &" A $end
$var wire 1 %" Y $end
$upscope $end
$scope module _163_ $end
$var wire 1 ? A $end
$var wire 1 %" B $end
$var wire 1 $" Y $end
$upscope $end
$scope module _164_ $end
$var wire 1 ]" A $end
$var wire 1 '" B $end
$var wire 1 #" Y $end
$upscope $end
$scope module _165_ $end
$var wire 1 #" A $end
$var wire 1 "" Y $end
$upscope $end
$scope module _166_ $end
$var wire 1 F A $end
$var wire 1 "" B $end
$var wire 1 !" Y $end
$upscope $end
$scope module _167_ $end
$var wire 1 (" A $end
$var wire 1 $" B $end
$var wire 1 ^" Y $end
$upscope $end
$scope module _168_ $end
$var wire 1 _" A $end
$var wire 1 !" B $end
$var wire 1 ~ Y $end
$upscope $end
$scope module _169_ $end
$var wire 1 Z A $end
$var wire 1 ~ B $end
$var wire 1 `" Y $end
$upscope $end
$scope module _170_ $end
$var wire 1 % A $end
$var wire 1 a" B $end
$var wire 1 } Y $end
$upscope $end
$scope module _171_ $end
$var wire 1 } A $end
$var wire 1 b" Y $end
$upscope $end
$scope module _172_ $end
$var wire 1 c" A $end
$var wire 1 D B $end
$var wire 1 | Y $end
$upscope $end
$scope module _173_ $end
$var wire 1 d" A $end
$var wire 1 E B $end
$var wire 1 { Y $end
$upscope $end
$scope module _174_ $end
$var wire 1 | A $end
$var wire 1 { B $end
$var wire 1 z Y $end
$upscope $end
$scope module _175_ $end
$var wire 1 z A $end
$var wire 1 y Y $end
$upscope $end
$scope module _176_ $end
$var wire 1 > A $end
$var wire 1 y B $end
$var wire 1 e" Y $end
$upscope $end
$scope module _177_ $end
$var wire 1 f" A $end
$var wire 1 D B $end
$var wire 1 x Y $end
$upscope $end
$scope module _178_ $end
$var wire 1 g" A $end
$var wire 1 E B $end
$var wire 1 w Y $end
$upscope $end
$scope module _179_ $end
$var wire 1 x A $end
$var wire 1 w B $end
$var wire 1 v Y $end
$upscope $end
$scope module _180_ $end
$var wire 1 v A $end
$var wire 1 u Y $end
$upscope $end
$scope module _181_ $end
$var wire 1 > A $end
$var wire 1 u B $end
$var wire 1 h" Y $end
$upscope $end
$scope module _182_ $end
$var wire 1 F A $end
$var wire 1 D B $end
$var wire 1 t Y $end
$upscope $end
$scope module _183_ $end
$var wire 1 Y A $end
$var wire 1 t B $end
$var wire 1 s Y $end
$upscope $end
$scope module _184_ $end
$var wire 1 i" A $end
$var wire 1 E B $end
$var wire 1 r Y $end
$upscope $end
$scope module _185_ $end
$var wire 1 r A $end
$var wire 1 q Y $end
$upscope $end
$scope module _186_ $end
$var wire 1 s A $end
$var wire 1 q B $end
$var wire 1 p Y $end
$upscope $end
$scope module _187_ $end
$var wire 1 > A $end
$var wire 1 p B $end
$var wire 1 j" Y $end
$upscope $end
$scope module _188_ $end
$var wire 1 X A $end
$var wire 1 t B $end
$var wire 1 o Y $end
$upscope $end
$scope module _189_ $end
$var wire 1 k" A $end
$var wire 1 E B $end
$var wire 1 n Y $end
$upscope $end
$scope module _190_ $end
$var wire 1 n A $end
$var wire 1 m Y $end
$upscope $end
$scope module _191_ $end
$var wire 1 o A $end
$var wire 1 m B $end
$var wire 1 l Y $end
$upscope $end
$scope module _192_ $end
$var wire 1 > A $end
$var wire 1 l B $end
$var wire 1 l" Y $end
$upscope $end
$scope module _193_ $end
$var wire 1 W A $end
$var wire 1 t B $end
$var wire 1 k Y $end
$upscope $end
$scope module _194_ $end
$var wire 1 m" A $end
$var wire 1 E B $end
$var wire 1 j Y $end
$upscope $end
$scope module _195_ $end
$var wire 1 j A $end
$var wire 1 i Y $end
$upscope $end
$scope module _196_ $end
$var wire 1 k A $end
$var wire 1 i B $end
$var wire 1 h Y $end
$upscope $end
$scope module _197_ $end
$var wire 1 > A $end
$var wire 1 h B $end
$var wire 1 n" Y $end
$upscope $end
$scope module _198_ $end
$var wire 1 V A $end
$var wire 1 t B $end
$var wire 1 g Y $end
$upscope $end
$scope module _199_ $end
$var wire 1 * C $end
$var wire 1 o" D $end
$var reg 1 p" Q $end
$upscope $end
$scope module _200_ $end
$var wire 1 * C $end
$var wire 1 q" D $end
$var reg 1 r" Q $end
$upscope $end
$scope module _201_ $end
$var wire 1 * C $end
$var wire 1 s" D $end
$var reg 1 t" Q $end
$upscope $end
$scope module _202_ $end
$var wire 1 * C $end
$var wire 1 u" D $end
$var reg 1 v" Q $end
$upscope $end
$scope module _203_ $end
$var wire 1 * C $end
$var wire 1 w" D $end
$var reg 1 x" Q $end
$upscope $end
$scope module _204_ $end
$var wire 1 * C $end
$var wire 1 y" D $end
$var reg 1 z" Q $end
$upscope $end
$scope module _205_ $end
$var wire 1 * C $end
$var wire 1 {" D $end
$var reg 1 |" Q $end
$upscope $end
$scope module _206_ $end
$var wire 1 * C $end
$var wire 1 }" D $end
$var reg 1 ~" Q $end
$upscope $end
$scope module _207_ $end
$var wire 1 * C $end
$var wire 1 !# D $end
$var reg 1 "# Q $end
$upscope $end
$scope module _208_ $end
$var wire 1 * C $end
$var wire 1 ## D $end
$var reg 1 $# Q $end
$upscope $end
$scope module _209_ $end
$var wire 1 * C $end
$var wire 1 %# D $end
$var reg 1 &# Q $end
$upscope $end
$scope module _210_ $end
$var wire 1 * C $end
$var wire 1 '# D $end
$var reg 1 (# Q $end
$upscope $end
$scope module _211_ $end
$var wire 1 * C $end
$var wire 1 )# D $end
$var reg 1 *# Q $end
$upscope $end
$scope module _212_ $end
$var wire 1 * C $end
$var wire 1 +# D $end
$var reg 1 ,# Q $end
$upscope $end
$scope module _213_ $end
$var wire 1 * C $end
$var wire 1 -# D $end
$var reg 1 .# Q $end
$upscope $end
$scope module _214_ $end
$var wire 1 * C $end
$var wire 1 /# D $end
$var reg 1 0# Q $end
$upscope $end
$scope module _215_ $end
$var wire 1 * C $end
$var wire 1 1# D $end
$var reg 1 2# Q $end
$upscope $end
$scope module _216_ $end
$var wire 1 * C $end
$var wire 1 3# D $end
$var reg 1 4# Q $end
$upscope $end
$scope module _217_ $end
$var wire 1 * C $end
$var wire 1 5# D $end
$var reg 1 6# Q $end
$upscope $end
$scope module _218_ $end
$var wire 1 * C $end
$var wire 1 7# D $end
$var reg 1 8# Q $end
$upscope $end
$scope module _219_ $end
$var wire 1 * C $end
$var wire 1 ," D $end
$var reg 1 + Q $end
$upscope $end
$scope module _220_ $end
$var wire 1 * C $end
$var wire 1 )" D $end
$var reg 1 # Q $end
$upscope $end
$upscope $end
$scope module serial_paralelobp $end
$var wire 1 * clk_32f $end
$var wire 1 ) clk_4f $end
$var wire 1 ( data_in $end
$var wire 1 % reset $end
$var reg 4 9# BC_counter [3:0] $end
$var reg 1 , active $end
$var reg 8 :# data2send [7:0] $end
$var reg 8 ;# data_out [7:0] $end
$var reg 1 $ valid_out $end
$upscope $end
$upscope $end
$scope module DFFSR $end
$var wire 1 <# C $end
$var wire 1 =# D $end
$var wire 1 ># R $end
$var wire 1 ?# S $end
$var reg 1 @# Q $end
$upscope $end
$enddefinitions $end
#0
$dumpvars
x@#
z?#
z>#
z=#
z<#
bx ;#
bx :#
bx 9#
x8#
07#
x6#
05#
x4#
03#
x2#
01#
x0#
0/#
x.#
0-#
x,#
0+#
x*#
0)#
x(#
0'#
x&#
0%#
x$#
0##
x"#
0!#
x~"
0}"
x|"
0{"
xz"
0y"
xx"
0w"
xv"
0u"
xt"
0s"
xr"
0q"
xp"
0o"
0n"
xm"
0l"
xk"
0j"
xi"
0h"
xg"
xf"
0e"
xd"
xc"
0b"
xa"
0`"
x_"
0^"
x]"
x\"
x["
xZ"
0Y"
xX"
0W"
xV"
0U"
xT"
0S"
xR"
0Q"
xP"
0O"
xN"
0M"
xL"
0K"
xJ"
0I"
xH"
xG"
xF"
xE"
xD"
xC"
xB"
xA"
x@"
x?"
x>"
x="
x<"
x;"
x:"
x9"
x8"
x7"
x6"
05"
x4"
03"
x2"
x1"
00"
x/"
bx ."
b0 -"
0,"
b0 +"
b0 *"
0)"
x("
x'"
1&"
0%"
1$"
x#"
x""
x!"
x~
1}
x|
x{
xz
xy
xx
xw
xv
xu
xt
xs
xr
xq
xp
xo
xn
xm
xl
xk
xj
xi
xh
xg
xf
xe
xd
xc
xb
xa
x`
x_
x^
x]
x\
x[
1Z
xY
xX
xW
xV
xU
xT
xS
xR
xQ
xP
xO
xN
xM
xL
xK
xJ
xI
xH
xG
xF
xE
xD
xC
1B
xA
x@
0?
1>
x=
1<
1;
1:
19
18
17
16
15
x4
13
x2
x1
bx 0
bx /
bx .
bx -
x,
x+
1*
1)
1(
bx '
bx &
0%
x$
x#
z"
z!
$end
#1
0*
#2
04
1~
0A
1@
1y
1u
1`
0!"
0z
0v
0a
1("
1F
0G
1C
1=
1|
1x
1t
1c
1""
1N
1\
1d
1h
1l
1p
0{
0w
0b
0#"
01
0O
0I
1H
0D
0_
0g
0k
0o
0s
0L
0]
0e
0i
0m
0q
1E
1'"
12
0K
1P
1Q
1J
1M
1^
1f
1j
1n
1r
1S
1T
1U
1R
1[
1V
1W
1X
1Y
0a"
0]"
0H"
0="
0_"
0G"
0<"
0\"
0Z"
0["
0X"
0;"
0B"
0>"
0V"
0E"
06"
02"
0T"
0A"
0:"
0R"
0@"
09"
0P"
0?"
08"
0N"
0F"
07"
0g"
0L"
0D"
0d"
0J"
0C"
04"
01"
0/"
0m"
0k"
0i"
0f"
0c"
0(
0#
0+
08#
06#
04#
b0 ."
02#
00#
0.#
0,#
0*#
0(#
0&#
0$#
b0 0
0"#
0~"
0|"
0z"
0x"
0v"
0t"
0r"
b0 &
b0 -
b0 /
0p"
b0 :#
b0 9#
0,
0$
b0 '
b0 .
b0 ;#
1*
#3
0*
#4
1(
1*
#5
0*
#6
1*
#7
0*
#8
1*
0)
#9
0*
#10
1*
#11
0*
#12
0(
1*
#13
0*
#14
1*
#15
0*
#16
1(
1*
1)
#17
0*
#18
0(
1*
#19
0*
#20
1(
1*
#21
0*
#22
1*
#23
0*
#24
1*
0)
#25
0*
#26
1*
#27
0*
#28
0(
1*
#29
0*
#30
1*
#31
0*
#32
0$"
1!#
1?
b1 +"
1I"
1%"
0B
0>
0<
0&"
0Z
1(
1%
1*
1)
#33
0*
#34
1##
0!#
1K"
1L
b10 +"
0I"
0;
0M
1<
1d"
1J"
1C"
0(
b1 0
1"#
b1 :#
1*
#35
0*
#36
0##
1%#
0K"
1M"
1!#
1;
0:
b101 +"
1I"
0<
0d"
0J"
0C"
1g"
1L"
1D"
b10 :#
0"#
b10 0
1$#
1(
1*
#37
0*
#38
1'#
0%#
1##
1O"
1K
0M"
b1011 +"
1K"
09
0J
1:
0;
0Y
1N"
1F"
17"
0g"
0L"
0D"
1d"
1J"
1C"
1&#
0$#
b101 0
1"#
b101 :#
1*
#39
0*
#40
1%#
0'#
1)#
1M"
0O"
0K
b10111 +"
1Q"
0:
19
1J
08
1Y
0X
1g"
1L"
1D"
0N"
0F"
07"
1P"
1?"
18"
b1011 :#
1$#
0&#
b1011 0
1(#
1*
0)
#41
0*
#42
1+#
0)#
1'#
1S"
0Q"
b101111 +"
1O"
1K
07
18
09
0J
0W
1X
0Y
1R"
1@"
19"
0P"
0?"
08"
1N"
1F"
17"
1*#
0(#
b10111 0
1&#
b10111 :#
1*
#43
0*
#44
1)#
0+#
1-#
1Q"
0S"
1U"
0!#
08
17
06
b1011110 +"
0I"
0X
1W
0V
1<
1P"
1?"
18"
0R"
0@"
09"
1T"
1A"
1:"
b101111 :#
1(#
0*#
b101111 0
1,#
0(
1*
#45
0*
#46
1/#
0-#
1+#
0##
1W"
1J
0U"
1S"
b10111100 +"
0K"
05
0K
16
07
0Q
1;
0[
1V
0W
1V"
1E"
16"
12"
0T"
0A"
0:"
1R"
1@"
19"
0d"
0J"
0C"
1.#
0,#
1*#
b1011110 0
0"#
b1011110 :#
1*
#47
0*
#48
11#
b1 -"
1Y"
03
0?
1>
14
1B
1A
0@
0F
1G
1I
0N
0%#
1-#
0/#
0H
1O
0M"
0L
1U"
0W"
0J
1!#
1:
1M
06
15
1K
0P
b1111001 +"
1I"
0V
1[
0R
0<
0g"
0L"
0D"
1T"
1A"
1:"
0V"
0E"
06"
02"
1B"
1>"
b10111100 :#
0$#
1,#
0.#
b10111100 0
10#
1(
1*
1)
#49
0*
#50
1?
0>
03#
0^"
0B
0A
1@
11#
b1 -"
1Y"
1("
1F
0G
1N
01
0O
1/#
0'#
0I
1##
1H
0!#
1W"
0O"
1K"
1L
b11110010 +"
0I"
12
1P
05
0K
19
1J
0;
0M
1<
0U
1R
0[
1Y
1["
1X"
1;"
0B"
0>"
1V"
1E"
16"
12"
0N"
0F"
07"
1d"
1J"
1C"
0(
b1 ."
12#
00#
1.#
0&#
b1111001 0
1"#
b1 9#
b1111001 :#
1*
#51
0*
#52
0##
1%#
0)#
0K"
1M"
0Q"
1!#
1;
0:
18
1Q
0P
b11100101 +"
1I"
1X
0R
0<
0d"
0J"
0C"
1g"
1L"
1D"
0P"
0?"
08"
1B"
1>"
b11110010 :#
0"#
1$#
0(#
b11110010 0
10#
1(
1*
#53
0*
#54
0+#
1'#
0%#
1##
0S"
1O"
0M"
b11001011 +"
1K"
17
09
1:
0;
1W
0Y
0R"
0@"
09"
1N"
1F"
17"
0g"
0L"
0D"
1d"
1J"
1C"
0*#
1&#
0$#
b11100101 0
1"#
b11100101 :#
1*
#55
0*
#56
1%#
0'#
1)#
0-#
1M"
0O"
1Q"
b10010111 +"
0U"
0:
19
08
16
1P
1Y
0X
1V
1g"
1L"
1D"
0N"
0F"
07"
1P"
1?"
18"
0T"
0A"
0:"
b11001011 :#
1$#
0&#
1(#
b11001011 0
0,#
1*
0)
#57
0*
#58
0/#
1+#
0)#
1'#
0W"
0J
1S"
0Q"
b101111 +"
1O"
15
1K
07
18
09
1[
0W
1X
0Y
0V"
0E"
06"
02"
1R"
1@"
19"
0P"
0?"
08"
1N"
1F"
17"
0.#
1*#
0(#
b10010111 0
1&#
b10010111 :#
1*
#59
0*
#60
1)#
0+#
1-#
1Q"
0S"
1U"
0!#
08
17
06
b1011110 +"
0I"
0X
1W
0V
1R
1<
1P"
1?"
18"
0R"
0@"
09"
1T"
1A"
1:"
0B"
0>"
b101111 :#
1(#
0*#
1,#
b101111 0
00#
0(
1*
#61
0*
#62
1/#
0-#
1+#
0##
1W"
1J
0U"
1S"
b10111100 +"
0K"
05
0K
16
07
0Q
1;
0[
1V
0W
1V"
1E"
16"
12"
0T"
0A"
0:"
1R"
1@"
19"
0d"
0J"
0C"
1.#
0,#
1*#
b1011110 0
0"#
b1011110 :#
1*
#63
0*
#64
13#
1^"
01#
b10 -"
0Y"
0("
0?
1>
11
1B
1A
0@
02
0F
1G
1I
0N
0%#
1-#
0/#
0H
1O
0M"
0L
1U"
0W"
0J
1!#
1:
1M
06
15
1K
0P
b1111001 +"
1I"
0V
1[
0R
0<
0g"
0L"
0D"
1T"
1A"
1:"
0V"
0E"
06"
02"
1B"
1>"
b10111100 :#
0$#
1,#
0.#
b10111100 0
10#
1(
1*
1)
#65
0*
#66
13
1?
0>
04
0B
0A
1@
01#
b10 -"
0Y"
1F
0G
1N
01
0O
1/#
0'#
0I
1##
1H
0!#
1W"
0O"
1K"
1L
b11110010 +"
0I"
12
1P
05
0K
19
1J
0;
0M
1<
1U
1R
0[
1Y
1\"
1Z"
0["
0X"
0;"
0B"
0>"
1V"
1E"
16"
12"
0N"
0F"
07"
1d"
1J"
1C"
0(
14#
b10 ."
02#
00#
1.#
0&#
b1111001 0
1"#
b10 9#
b1111001 :#
1*
#67
0*
#68
0##
1%#
0)#
0K"
1M"
0Q"
1!#
1;
0:
18
1Q
0P
b11100101 +"
1I"
1X
0R
0<
0d"
0J"
0C"
1g"
1L"
1D"
0P"
0?"
08"
1B"
1>"
b11110010 :#
0"#
1$#
0(#
b11110010 0
10#
1(
1*
#69
0*
#70
0+#
1'#
0%#
1##
0S"
1O"
0M"
b11001011 +"
1K"
17
09
1:
0;
1W
0Y
0R"
0@"
09"
1N"
1F"
17"
0g"
0L"
0D"
1d"
1J"
1C"
0*#
1&#
0$#
b11100101 0
1"#
b11100101 :#
1*
#71
0*
#72
1%#
0'#
1)#
0-#
1M"
0O"
1Q"
b10010111 +"
0U"
0:
19
08
16
1P
1Y
0X
1V
1g"
1L"
1D"
0N"
0F"
07"
1P"
1?"
18"
0T"
0A"
0:"
b11001011 :#
1$#
0&#
1(#
b11001011 0
0,#
1*
0)
#73
0*
#74
0/#
1+#
0)#
1'#
0W"
0J
1S"
0Q"
b101111 +"
1O"
15
1K
07
18
09
1[
0W
1X
0Y
0V"
0E"
06"
02"
1R"
1@"
19"
0P"
0?"
08"
1N"
1F"
17"
0.#
1*#
0(#
b10010111 0
1&#
b10010111 :#
1*
#75
0*
#76
1)#
0+#
1-#
1Q"
0S"
1U"
0!#
08
17
06
b1011110 +"
0I"
0X
1W
0V
1R
1<
1P"
1?"
18"
0R"
0@"
09"
1T"
1A"
1:"
0B"
0>"
b101111 :#
1(#
0*#
1,#
b101111 0
00#
0(
1*
#77
0*
#78
1/#
0-#
1+#
0##
1W"
1J
0U"
1S"
b10111100 +"
0K"
05
0K
16
07
0Q
1;
0[
1V
0W
1V"
1E"
16"
12"
0T"
0A"
0:"
1R"
1@"
19"
0d"
0J"
0C"
1.#
0,#
1*#
b1011110 0
0"#
b1011110 :#
1*
#79
0*
#80
11#
b11 -"
1Y"
03
0?
1>
14
1B
1A
0@
0F
1G
1I
0N
0%#
1-#
0/#
0H
1O
0M"
0L
1U"
0W"
0J
1!#
1:
1M
06
15
1K
0P
b1111001 +"
1I"
0V
1[
0R
0<
0g"
0L"
0D"
1T"
1A"
1:"
0V"
0E"
06"
02"
1B"
1>"
b10111100 :#
0$#
1,#
0.#
b10111100 0
10#
1(
1*
1)
#81
0*
